<?xml version="1.0" encoding="UTF-8" standalone="no"?>
<svg
   xmlns:dc="http://purl.org/dc/elements/1.1/"
   xmlns:cc="http://creativecommons.org/ns#"
   xmlns:rdf="http://www.w3.org/1999/02/22-rdf-syntax-ns#"
   xmlns:svg="http://www.w3.org/2000/svg"
   xmlns="http://www.w3.org/2000/svg"
   xmlns:sodipodi="http://sodipodi.sourceforge.net/DTD/sodipodi-0.dtd"
   xmlns:inkscape="http://www.inkscape.org/namespaces/inkscape"
   version="1.1"
   id="svg2"
   viewBox="0 0 744.09449 1052.3623"
   height="297mm"
   width="210mm"
   sodipodi:docname="Rat2.svg"
   inkscape:version="0.92.1 15371">
  <sodipodi:namedview
     pagecolor="#ffffff"
     bordercolor="#666666"
     borderopacity="1"
     objecttolerance="10"
     gridtolerance="10"
     guidetolerance="10"
     inkscape:pageopacity="0"
     inkscape:pageshadow="2"
     inkscape:window-width="2495"
     inkscape:window-height="1416"
     id="namedview4700"
     showgrid="false"
     inkscape:zoom="1.1198022"
     inkscape:cx="396.85039"
     inkscape:cy="561.25984"
     inkscape:window-x="2625"
     inkscape:window-y="24"
     inkscape:window-maximized="1"
     inkscape:current-layer="svg2" />
  <defs
     id="defs4" />
  <metadata
     id="metadata7">
    <rdf:RDF>
      <cc:Work
         rdf:about="">
        <dc:format>image/svg+xml</dc:format>
        <dc:type
           rdf:resource="http://purl.org/dc/dcmitype/StillImage" />
        <dc:title />
      </cc:Work>
    </rdf:RDF>
  </metadata>
  <g
     id="layer1">
    <path
       id="path4243"
       d="m 332.67857,388.96935 c 0,0 -44.58816,-14.40499 -67.67857,-14.82143 -16.33129,-0.29454 -32.76278,3.45389 -48.21429,8.75 -18.98984,6.50889 -36.38621,17.1916 -53.39285,27.85714 -7.3524,4.61098 -20.89286,15.53571 -20.89286,15.53571"
       style="fill:none;fill-rule:evenodd;stroke:#000000;stroke-width:4;stroke-linecap:butt;stroke-linejoin:miter;stroke-miterlimit:4;stroke-dasharray:none;stroke-opacity:1" />
    <path
       id="path4245"
       d="m 159.10714,488.43363 c 0,0 11.6998,3.27533 17.67857,4.28572 10.90922,1.84361 21.97922,2.8095 33.03572,3.21428 17.49324,0.64042 35.02735,-0.18695 52.5,-1.25 15.22319,-0.92619 30.53135,-1.73069 45.53571,-4.46428 14.43237,-2.62939 28.67445,-6.52336 42.5,-11.42858 11.85308,-4.2054 33.19461,-14.20015 33.19461,-14.20015 0,0 0.53278,6.05323 0.0791,9.34263 -0.51603,3.74136 -1.28017,7.58476 -3.08551,10.90211 -1.43989,2.64583 -3.81298,4.68069 -5.9653,6.78811 -2.43389,2.38312 -5.75961,4.48581 -8.23521,5.95451 -1.77792,1.05478 -6.71455,2.67727 -10.27781,3.7134 -3.97936,1.15712 -7.82847,2.90811 -11.93061,3.4969 -2.91846,0.41889 -5.89674,0 -8.84511,0 -1.71417,0 -3.75348,-0.57323 -5.4385,-0.88799 -2.24051,-0.41851 -5.45281,-1.26646 -5.45281,-1.26646"
       style="fill:none;fill-rule:evenodd;stroke:#000000;stroke-width:4;stroke-linecap:butt;stroke-linejoin:miter;stroke-miterlimit:4;stroke-dasharray:none;stroke-opacity:1" />
    <path
       id="path4247"
       d="m 159.21195,488.12657 c 3.16392,-2.33103 6.08896,-5.21797 8.02231,-8.63941 2.31673,-4.09991 3.46033,-8.88838 3.9083,-13.57622 0.65489,-6.85317 0.0115,-13.90194 -1.2234,-20.67467 -0.68931,-3.78047 -2.00861,-7.71828 -4.86455,-11.42176 -3.41467,-4.42802 -7.24146,-5.88078 -12.67036,-7.3728 -3.55818,-0.97789 -7.09148,-1.07332 -8.88639,-0.89294 -2.85304,0.28672 -6.04673,1.23932 -8.57653,2.58919 -2.24561,1.19823 -4.64895,2.80463 -6.68346,4.3341 -5.50531,4.13868 -9.17765,8.48647 -12.72821,14.38822 -2.64913,4.40339 -4.634,11.14919 -4.9368,16.27911 -0.37162,6.29606 -0.10044,12.94266 3.38505,18.19907 2.12333,3.20216 5.94902,5.24901 9.25291,7.21031 2.76863,1.64355 5.6927,3.05447 8.84871,3.6918 3.09823,0.62566 6.41461,1.07996 9.56686,0.848 4.18528,-0.30798 7.24142,-0.34939 11.29191,-1.4471 1.83521,-0.49735 4.76284,-2.38707 6.29365,-3.5149 z"
       style="fill:#000000;fill-opacity:1;fill-rule:evenodd;stroke:#000000;stroke-width:4;stroke-linecap:butt;stroke-linejoin:miter;stroke-miterlimit:4;stroke-dasharray:none;stroke-opacity:1" />
    <path
       id="path4249"
       d="m 242.69155,375.87835 c 0,0 1.60136,-14.04255 3.94299,-21.86831 3.61624,-12.08555 9.11195,-23.63742 15.42751,-34.55764 6.53662,-11.30245 13.42435,-21.11557 21.85444,-31.08584 6.01074,-7.10891 13.4266,-14.86531 21.0215,-20.24891 16.24129,-11.51254 35.08395,-18.82144 53.80315,-25.59712 16.73285,-6.0567 34.04408,-10.85941 51.63075,-13.57621 12.34793,-1.90751 25.04976,-3.48083 37.43744,-1.8513 9.99692,1.31504 19.87294,4.56498 28.79803,9.2565 9.04399,4.75402 16.67179,11.8907 24.27262,18.71872 8.40576,7.5511 16.75895,15.37294 23.44982,24.47833 5.46975,7.44362 9.7917,15.75689 13.37051,24.27262 3.41215,8.11917 5.68795,16.7066 7.61091,25.30112 1.72558,7.71236 3.34393,15.54827 3.4969,23.44983 0.10948,5.65517 -0.5803,11.35583 -1.8513,16.86741 -2.19307,9.51003 -5.51006,18.83401 -9.87361,27.56383 -3.45207,6.9063 -7.61984,13.56866 -12.75341,19.33582 -7.86261,8.83302 -17.92578,15.43595 -27.15242,22.83272 -4.8471,3.8858 -9.24832,8.54641 -14.81042,11.31351 -4.5874,2.28219 -10.39304,1.51796 -14.81041,4.114 -6.64634,3.90597 -10.09874,11.80969 -16.25032,16.45602 -3.18328,2.40436 -7.03124,3.77307 -10.49071,5.7596 -1.73356,0.99546 -3.20609,2.58902 -5.1425,3.08551 -1.72816,0.44309 -4.01069,-1.38634 -5.34821,-0.2057 -2.99254,2.64154 0.35898,8.18789 -1.0285,11.93061 -1.46843,3.96109 -4.46571,7.2509 -7.40521,10.28501 -3.91252,4.03845 -8.43307,7.59456 -13.37051,10.28501 -4.66565,2.54235 -9.78765,4.40211 -15.01611,5.3482 -4.25121,0.76926 -8.71799,1.02872 -12.95912,0.2057 -4.67557,-0.90733 -8.73603,-3.80171 -13.16481,-5.5539 -4.96249,-1.96335 -9.89882,-4.03917 -15.01611,-5.55391 -2.69562,-0.79792 -8.22801,-1.8513 -8.22801,-1.8513"
       style="fill:none;fill-rule:evenodd;stroke:#000000;stroke-width:4;stroke-linecap:butt;stroke-linejoin:miter;stroke-miterlimit:4;stroke-dasharray:none;stroke-opacity:1" />
    <path
       id="path4253"
       d="m 261.03857,495.45416 c 0,0 0.54474,8.47733 1.22918,13.03672 0.34338,2.28742 0.13202,4.88032 1.4399,6.78811 1.06459,1.5529 3.08184,2.17733 4.73111,3.0855 2.31144,1.27279 4.6212,2.72982 7.1995,3.29121 2.2779,0.49598 4.77235,0.70706 6.99381,0 1.92162,-0.61163 3.46221,-2.12131 4.9368,-3.49691 1.42518,-1.32951 1.32726,-2.13337 2.07464,-3.93341 1.55925,-3.75546 1.10104,-8.83271 1.53019,-12.8763 0.34969,-3.29483 -1.25819,-9.69469 4.34838,-8.39981 1.347,0.3111 0.73523,6.35041 0.86639,7.35282 0.53533,4.09123 0.2738,5.86746 0.66506,11.11133 0.17142,2.2975 0.53027,5.05412 2.44596,6.33397 0.99733,0.6663 1.94492,1.48023 3.0855,1.85131 2.94569,0.95835 6.32585,1.82617 9.25651,0.8228 2.47868,-0.84863 5.60473,-3.10631 7.12005,-5.24356 1.6872,-2.37968 2.12517,-5.44784 3.49691,-8.02231 0.85981,-1.61368 0.97102,-3.00826 1.59064,-4.72852 0.87851,-2.43903 0.95461,-5.12572 0.95721,-7.71814 0.003,-2.95914 -1.07494,-7.45166 -1.07494,-7.45166"
       style="opacity:1;fill:none;fill-opacity:1;stroke:#000000;stroke-width:4;stroke-linecap:round;stroke-linejoin:miter;stroke-miterlimit:4;stroke-dasharray:none;stroke-dashoffset:0;stroke-opacity:1" />
    <path
       id="path4255"
       d="m 347.85703,481.07155 c 0,0 -2.51693,7.61559 -2.8978,9.72912 -0.56056,3.11067 -0.95034,6.31906 -0.6171,9.46221 0.17838,1.68256 1.38508,4.88333 1.38508,4.88333"
       style="opacity:1;fill:none;fill-opacity:1;stroke:#000000;stroke-width:4;stroke-linecap:round;stroke-linejoin:miter;stroke-miterlimit:4;stroke-dasharray:none;stroke-dashoffset:0;stroke-opacity:1" />
    <path
       id="path4257"
       d="m 366.00361,472.51716 c 0,0 3.24569,4.86279 4.66814,7.7928 1.01328,2.08719 1.78825,4.31128 2.26271,6.5824 0.41279,1.97591 0.48875,6.03595 0.48875,6.03595"
       style="opacity:1;fill:none;fill-opacity:1;stroke:#000000;stroke-width:4;stroke-linecap:round;stroke-linejoin:miter;stroke-miterlimit:4;stroke-dasharray:none;stroke-dashoffset:0;stroke-opacity:1" />
    <path
       id="path4259"
       d="m 332.67857,388.96935 c 0,0 8.08526,-2.39692 12.18813,-3.35913 4.95275,-1.16153 9.91781,-2.42196 14.98156,-2.90904 4.92265,-0.4735 9.89777,-0.2638 14.8361,0 6.81689,0.36415 13.65149,0.93498 20.36328,2.18178 5.92011,1.09974 11.79714,2.59184 17.45424,4.65446 4.07546,1.48594 8.06952,3.2827 11.78162,5.52718 3.02048,1.8263 5.85473,3.99268 8.43621,6.39989 4.14631,3.86642 8.02336,8.1039 11.19981,12.79977 1.73729,2.5683 2.99751,5.44041 4.2181,8.29077 1.43663,3.35487 2.56187,6.8393 3.6363,10.32709 1.22563,3.97863 2.25134,8.0189 3.19995,12.07252 0.66515,2.84233 1.33295,5.69183 1.74542,8.58166 0.52468,3.67601 0.92235,11.10155 0.92235,11.10155"
       style="opacity:1;fill:none;fill-opacity:1;stroke:#000000;stroke-width:4;stroke-linecap:round;stroke-linejoin:miter;stroke-miterlimit:4;stroke-dasharray:none;stroke-dashoffset:0;stroke-opacity:1" />
    <path
       id="path4261"
       d="m 277.06992,375.0556 c 0,0 -1.60528,-8.62137 -1.84306,-13.84606 -0.34926,-7.67428 -0.24862,-15.40513 0.6171,-23.03842 0.89861,-7.92331 2.39166,-15.82661 4.73111,-23.44982 1.87545,-6.11124 4.36518,-12.06681 7.40521,-17.69022 2.677,-4.95187 5.80765,-9.70606 9.4622,-13.98761 2.86594,-3.35763 5.84687,-6.84017 9.66791,-9.05081 2.23411,-1.29253 4.55047,-2.21997 7.10921,-2.5587 2.04035,-0.27009 4.65831,-0.40643 6.46701,0.5757 2.07354,1.12594 2.32743,1.2826 3.16698,2.94499 1.93453,3.83053 2.07304,6.92694 2.8798,11.14173 1.0173,5.31464 1.21509,11.07938 1.35842,16.48861 0.18252,6.88845 -0.82241,13.79065 -2.057,20.57002 -1.14425,6.28331 -3.0239,12.41957 -4.9368,18.51302 -1.74756,5.56676 -3.422,11.20488 -5.96531,16.45601 -2.21455,4.57235 -5.16114,8.76097 -8.02231,12.95911 -2.47491,3.63138 -7.31732,7.85784 -7.31732,7.85784"
       style="opacity:1;fill:none;fill-opacity:1;stroke:#000000;stroke-width:4;stroke-linecap:round;stroke-linejoin:miter;stroke-miterlimit:4;stroke-dasharray:none;stroke-dashoffset:0;stroke-opacity:1" />
    <path
       id="path4263"
       d="m 379.92764,381.87013 c 0,0 2.28672,-9.60627 3.49753,-15.10668 1.85317,-8.41851 3.11299,-16.97589 5.3482,-25.30112 2.05783,-7.66455 4.41968,-15.27403 7.40521,-22.62703 2.69949,-6.64849 5.5875,-13.29625 9.46221,-19.33581 3.15733,-4.92137 7.12106,-9.29902 11.10781,-13.57622 2.24892,-2.41276 4.14838,-5.53526 7.19951,-6.7881 2.72813,-1.12021 5.9333,-0.67366 8.8451,-0.2057 4.23965,0.68136 8.72539,1.71117 12.13632,4.3197 2.38717,1.8256 3.72426,4.75569 5.1425,7.40521 2.6439,4.93926 5.18527,10.11825 6.17101,15.63321 1.08606,6.07623 0.34152,12.38658 -0.4114,18.51302 -0.9861,8.02382 -2.70843,16.01447 -5.34821,23.65552 -1.93291,5.59494 -4.82453,10.82201 -7.61091,16.04462 -1.76574,3.3096 -3.70254,6.53107 -5.7596,9.66791 -2.64008,4.0259 -5.42693,7.96496 -8.43371,11.72491 -2.20736,2.76029 -6.49008,7.11443 -6.49008,7.11443"
       style="opacity:1;fill:none;fill-opacity:1;stroke:#000000;stroke-width:4;stroke-linecap:round;stroke-linejoin:miter;stroke-miterlimit:4;stroke-dasharray:none;stroke-dashoffset:0;stroke-opacity:1" />
    <path
       id="path4265"
       d="m 302.37929,316.7783 c -0.97639,-0.69325 -2.10648,-1.61416 -3.2912,-1.4399 -1.78064,0.26191 -3.10666,2.00542 -4.11401,3.4969 -2.18446,3.2343 -4.03927,8.11012 -5.05251,11.87919 -1.14508,4.25948 -1.42269,6.94171 -2.48125,11.22352 -0.77079,3.11781 -1.27507,7.01818 -1.51705,10.22073 -0.31783,4.2064 0.11307,8.61755 1.6456,12.54771 0.82241,2.10907 1.74633,4.88281 3.90831,5.5539 2.44495,0.75893 5.16225,-1.12384 7.19951,-2.6741 3.63463,-2.76578 6.47994,-7.37601 8.0223,-11.10781 1.20981,-2.92719 1.31801,-9.62515 1.59418,-14.63042 0.2043,-3.70268 0.26265,-7.80871 -0.15428,-11.49351 -0.41722,-3.68732 -1.25905,-7.46617 -3.0855,-10.69641 -0.64476,-1.14031 -1.60598,-2.12142 -2.6741,-2.8798 z"
       style="opacity:1;fill:#000000;fill-opacity:1;stroke:#000000;stroke-width:4;stroke-linecap:round;stroke-linejoin:miter;stroke-miterlimit:4;stroke-dasharray:none;stroke-dashoffset:0;stroke-opacity:1" />
    <path
       id="path4267"
       d="m 410.16619,330.14881 c -1.92701,-0.56188 -4.2023,-0.13684 -5.9653,0.82281 -2.86107,1.55735 -4.72765,4.59599 -6.37671,7.4052 -1.51541,2.58155 -2.54845,4.75921 -3.27834,7.66233 -0.82754,3.29145 -2.12199,6.41069 -2.98266,9.69363 -1.00746,3.84287 -2.33417,8.30001 -2.58411,12.26487 -0.14229,2.25718 0.71819,4.51964 1.6456,6.58241 0.64728,1.43971 1.5286,2.82223 2.67411,3.9083 1.33977,1.27024 1.57377,1.80252 4.86746,2.19799 2.33075,0.27985 7.00771,-0.7743 9.8713,-3.09244 1.99781,-1.61728 4.70336,-8.34407 6.61549,-13.19601 1.53437,-3.89338 2.87278,-9.31358 3.32977,-13.47337 0.3837,-3.49266 -0.20525,-7.07485 -1.0285,-10.49071 -0.56981,-2.36425 -1.2595,-4.80991 -2.6741,-6.7881 -1.0469,-1.46399 -2.38616,-2.99311 -4.11401,-3.49691 z"
       style="opacity:1;fill:#000000;fill-opacity:1;stroke:#000000;stroke-width:4;stroke-linecap:round;stroke-linejoin:miter;stroke-miterlimit:4;stroke-dasharray:none;stroke-dashoffset:0;stroke-opacity:1" />
    <path
       id="path4269"
       d="m 347.06145,246.37405 c 1.12693,-0.52704 -21.80005,-41.44756 -28.22615,-64.53508 -5.93389,-21.31913 -8.75175,-43.69481 -8.6394,-65.82406 0.0795,-15.65045 1.46116,-31.699204 6.5824,-46.488244 3.21712,-9.290364 8.03208,-18.385385 14.81042,-25.506825 4.16967,-4.380724 9.40297,-8.225002 15.22181,-9.873609 5.67496,-1.607842 11.96581,-1.010405 17.69022,0.4114 9.82072,2.439231 19.35177,7.130579 27.15242,13.576213 10.78334,8.910208 17.80373,21.647199 25.50683,33.323432 6.15405,9.328213 11.94371,18.985583 16.45601,29.209433 4.9553,11.2276 8.42434,23.09319 11.51922,34.96903 2.36023,9.0568 3.9389,18.31124 5.3482,27.56382 1.86987,12.27638 4.18903,24.6083 4.114,37.02604 -0.0372,6.15378 -2.11232,16.9908 -2.11232,16.9908"
       style="opacity:1;fill:none;fill-opacity:1;stroke:#000000;stroke-width:4;stroke-linecap:round;stroke-linejoin:miter;stroke-miterlimit:4;stroke-dasharray:none;stroke-dashoffset:0;stroke-opacity:1" />
    <path
       id="path4271"
       d="m 487.47117,242.09745 c 0,0 4.67051,-29.0598 9.5005,-44.21386 4.45668,-13.98279 10.09316,-27.76076 17.69022,-40.31724 6.81819,-11.26915 15.78457,-21.14518 24.68403,-30.85503 8.3232,-9.08111 16.8692,-18.13868 26.74102,-25.50682 9.50088,-7.091276 19.22196,-15.404482 30.85503,-17.690221 4.07254,-0.800198 8.4073,0.325012 12.34201,1.645602 7.9176,2.65735 15.57589,6.778036 21.80422,12.342012 6.44375,5.756417 12.01616,12.957587 15.22182,20.981417 3.07964,7.7084 4.15625,16.4284 3.2912,24.68403 -1.15262,11.00008 -6.48736,21.21746 -11.10781,31.26643 -4.95265,10.77146 -11.12279,20.98478 -17.69022,30.85503 -4.49741,6.7592 -9.39396,13.28804 -14.81041,19.33581 -5.95315,6.64702 -12.8463,12.38856 -19.33582,18.51302 -5.85711,5.52763 -11.66981,11.10671 -17.69022,16.45602 -4.43658,3.94203 -8.7791,8.02484 -13.57621,11.51921 -3.78333,2.75589 -8.08867,4.73163 -11.93061,7.40521 -4.77905,3.32571 -12.61017,9.53137 -12.61017,9.53137"
       style="opacity:1;fill:none;fill-opacity:1;stroke:#000000;stroke-width:4;stroke-linecap:round;stroke-linejoin:miter;stroke-miterlimit:4;stroke-dasharray:none;stroke-dashoffset:0;stroke-opacity:1" />
    <path
       id="path4298"
       d="m 188.55747,395.69854 c 0,0 10.5475,11.94183 14.05722,18.99306 3.56741,7.16713 5.87558,15.08471 6.78811,23.03842 0.67326,5.8682 0.0626,11.88517 -1.0285,17.69021 -2.56666,13.65511 -12.85518,39.65088 -12.85518,39.65088"
       style="opacity:1;fill:none;fill-opacity:1;stroke:#000000;stroke-width:1;stroke-linecap:round;stroke-linejoin:miter;stroke-miterlimit:4;stroke-dasharray:none;stroke-dashoffset:0;stroke-opacity:1" />
    <path
       id="path4300"
       d="m 235.50493,377.49633 c 0,0 11.4148,10.51802 15.44931,17.03665 7.74644,12.51606 13.72112,26.60524 16.04462,41.14004 1.77772,11.12067 0.26367,22.67335 -1.85131,33.73483 -1.69098,8.8439 -8.5746,25.61528 -8.5746,25.61528"
       style="opacity:1;fill:none;fill-opacity:1;stroke:#000000;stroke-width:1;stroke-linecap:round;stroke-linejoin:miter;stroke-miterlimit:4;stroke-dasharray:none;stroke-dashoffset:0;stroke-opacity:1" />
    <path
       id="path4302"
       d="m 301.72929,380.2539 c 0,0 7.43811,15.51328 7.64381,16.95318 0.2057,1.4399 4.25569,20.08822 5.7596,30.23793 0.95003,6.41164 2.36629,12.86156 2.057,19.33582 -0.47419,9.92612 -3.30724,19.63406 -5.9653,29.20942 -1.37554,4.95521 -5.14638,14.54408 -5.14638,14.54408"
       style="opacity:1;fill:none;fill-opacity:1;stroke:#000000;stroke-width:1;stroke-linecap:round;stroke-linejoin:miter;stroke-miterlimit:4;stroke-dasharray:none;stroke-dashoffset:0;stroke-opacity:1" />
    <path
       id="path4304"
       d="m 346.11649,385.31561 c 0,0 6.63229,14.26594 8.92205,21.76508 1.88102,6.16049 3.4726,12.49791 3.9083,18.92442 0.54392,8.02262 -0.61218,16.09257 -1.6456,24.06692 -0.65501,5.05432 -2.23779,9.96012 -2.8798,15.01611 -0.52486,4.13343 -0.78856,12.47496 -0.78856,12.47496"
       style="opacity:1;fill:none;fill-opacity:1;stroke:#000000;stroke-width:1;stroke-linecap:round;stroke-linejoin:miter;stroke-miterlimit:4;stroke-dasharray:none;stroke-dashoffset:0;stroke-opacity:1" />
    <path
       id="path4306"
       d="m 379.65492,383.23374 c 0,0 4.00531,11.47042 5.82725,17.26454 1.54258,4.90569 3.87859,9.68687 4.3197,14.81042 0.47348,5.49959 -0.79001,11.03906 -1.8513,16.45601 -1.06839,5.45319 -4.20451,10.49702 -4.5254,16.04462 -0.22458,3.88252 1.75612,7.63137 1.8513,11.51921 0.0337,1.37633 -0.45504,4.10509 -0.45504,4.10509"
       style="opacity:1;fill:none;fill-opacity:1;stroke:#000000;stroke-width:1;stroke-linecap:round;stroke-linejoin:miter;stroke-miterlimit:4;stroke-dasharray:none;stroke-dashoffset:0;stroke-opacity:1" />
    <path
       id="path4308"
       d="m 445.31884,416.563 c 0,0 -7.91643,14.83664 -13.34843,21.16702 -2.24723,2.61889 -5.15295,4.59411 -7.8166,6.7881 -4.90176,4.03749 -14.19332,11.72491 -15.01612,11.72491 -0.8228,0 -6.78093,4.29271 -10.49071,5.75961 -2.5672,1.01511 -5.26881,1.85903 -8.02231,2.057 -1.94063,0.13952 -5.80324,-0.62601 -5.80324,-0.62601"
       style="opacity:1;fill:none;fill-opacity:1;stroke:#000000;stroke-width:1;stroke-linecap:round;stroke-linejoin:miter;stroke-miterlimit:4;stroke-dasharray:none;stroke-dashoffset:0;stroke-opacity:1" />
    <path
       id="path4310"
       d="m 429.16363,481.75553 c 0,0 -9.32684,-2.08315 -14.06063,-2.67977 -6.54348,-0.8247 -13.2539,-2.38926 -19.74722,-1.2342 -1.84382,0.32799 -3.30336,1.90944 -5.14251,2.2627 -2.52839,0.48564 -7.7191,-0.27009 -7.7191,-0.27009"
       style="opacity:1;fill:none;fill-opacity:1;stroke:#000000;stroke-width:1;stroke-linecap:round;stroke-linejoin:miter;stroke-miterlimit:4;stroke-dasharray:none;stroke-dashoffset:0;stroke-opacity:1" />
    <path
       id="path4312"
       d="m 277.94497,324.98236 c 0,0 -10.79062,11.52722 -14.64872,18.33127 -2.99652,5.28458 -5.13869,11.12557 -6.3767,17.07311 -0.95102,4.5688 -0.74166,13.98054 -0.74166,13.98054"
       style="opacity:1;fill:none;fill-opacity:1;stroke:#000000;stroke-width:1;stroke-linecap:round;stroke-linejoin:miter;stroke-miterlimit:4;stroke-dasharray:none;stroke-dashoffset:0;stroke-opacity:1" />
    <path
       id="path4314"
       d="m 325.48485,325.91629 c 0,0 10.54313,-3.41184 15.97748,-4.40688 5.08039,-0.93023 10.26935,-1.70269 15.42751,-1.43991 5.30472,0.27024 10.74243,1.01348 15.63322,3.08551 3.76538,1.59524 6.91246,4.40654 10.07931,6.9938 2.62772,2.1468 7.35448,7.03809 7.35448,7.03809"
       style="opacity:1;fill:none;fill-opacity:1;stroke:#000000;stroke-width:1;stroke-linecap:round;stroke-linejoin:miter;stroke-miterlimit:4;stroke-dasharray:none;stroke-dashoffset:0;stroke-opacity:1" />
    <path
       id="path4316"
       d="m 317.76389,351.84145 c 0,0 7.56071,-0.98413 11.35642,-1.32832 6.36385,-0.57707 12.78241,-1.96781 19.13012,-1.2342 6.33491,0.73213 12.90242,2.16951 18.30732,5.55391 3.16654,1.9828 4.83096,5.73195 7.61091,8.22801 2.67229,2.39939 8.64875,6.42519 8.64875,6.42519"
       style="opacity:1;fill:none;fill-opacity:1;stroke:#000000;stroke-width:1;stroke-linecap:round;stroke-linejoin:miter;stroke-miterlimit:4;stroke-dasharray:none;stroke-dashoffset:0;stroke-opacity:1" />
    <path
       id="path4318"
       d="m 324.64817,280.02239 c 0,0 12.30769,-3.87629 18.66546,-4.79553 5.70396,-0.82471 11.51835,-0.43709 17.27881,-0.6171 7.67848,-0.23995 15.49308,-2.06084 23.03843,-0.6171 4.61596,0.88322 8.58301,3.84018 12.95911,5.55391 3.04926,1.19412 6.29309,1.89764 9.25651,3.2912 3.11397,1.46436 8.86751,5.28563 8.86751,5.28563"
       style="opacity:1;fill:none;fill-opacity:1;stroke:#000000;stroke-width:1;stroke-linecap:round;stroke-linejoin:miter;stroke-miterlimit:4;stroke-dasharray:none;stroke-dashoffset:0;stroke-opacity:1" />
    <path
       id="path4320"
       d="m 365.23855,240.24315 c 0,0 14.43147,1.13721 21.47782,2.68878 9.91092,2.18233 27.97523,9.25651 29.00373,9.25651 1.0285,0 15.22181,6.78811 16.04461,6.99381 0.8228,0.2057 9.69705,3.6997 13.78192,6.7881 4.49223,3.39639 7.58655,8.3257 11.31351,12.54772 4.85783,5.5031 9.87168,10.88365 14.39901,16.66171 5.33885,6.81377 13.98761,20.36432 15.01611,21.18712 1.02851,0.8228 4.89705,12.39648 6.99381,18.71872 1.93306,5.82865 4.31971,17.07312 5.14251,17.69022 0.8228,0.6171 0.62106,10.55527 0.6171,15.83891 -0.009,11.87175 -0.87513,23.72783 -1.4399,35.58614 -0.23847,5.0072 -0.76391,10.00358 -0.82281,15.01611 -0.0516,4.39011 -0.21084,8.81872 0.41141,13.16481 0.2748,1.91936 1.45698,5.63136 1.45698,5.63136"
       style="opacity:1;fill:none;fill-opacity:1;stroke:#000000;stroke-width:1;stroke-linecap:round;stroke-linejoin:miter;stroke-miterlimit:4;stroke-dasharray:none;stroke-dashoffset:0;stroke-opacity:1" />
    <path
       id="path4322"
       d="m 445.77941,359.0227 c 0,0 3.07502,10.15379 4.08692,15.35166 1.16197,5.96878 1.25836,12.1043 2.2627,18.10161 0.87956,5.25216 1.85586,10.505 3.29121,15.63322 1.05795,3.77984 2.56079,7.42125 3.9083,11.10781 1.4602,3.99485 2.81791,8.03504 4.5254,11.93061 1.60029,3.651 3.50634,7.16113 5.34821,10.69641 1.85241,3.55551 5.73413,10.5725 5.73413,10.5725"
       style="opacity:1;fill:none;fill-opacity:1;stroke:#000000;stroke-width:1;stroke-linecap:round;stroke-linejoin:miter;stroke-miterlimit:4;stroke-dasharray:none;stroke-dashoffset:0;stroke-opacity:1" />
    <path
       id="path4324"
       d="m 447.99892,227.11819 c 0,0 18.32343,13.75674 19.14623,13.75674 0.8228,0 14.17831,13.24607 20.98142,20.15862 4.73027,4.80637 9.26404,9.80387 13.78191,14.81041 5.37137,5.95236 10.88291,11.79922 15.83891,18.10162 5.44445,6.92356 11.18561,13.76993 15.22182,21.59852 3.03094,5.87877 5.26373,12.23739 6.58241,18.71872 1.9451,9.56015 0.95835,19.49437 1.8513,29.20943 0.55113,5.99613 2.16281,17.93427 2.16281,17.93427"
       style="opacity:1;fill:none;fill-opacity:1;stroke:#000000;stroke-width:1;stroke-linecap:round;stroke-linejoin:miter;stroke-miterlimit:4;stroke-dasharray:none;stroke-dashoffset:0;stroke-opacity:1" />
    <path
       id="path4326"
       d="m 356.51578,243.32677 c 0,0 -19.22603,-41.38539 -25.83441,-63.14631 -5.60069,-18.44267 -10.68889,-37.40067 -11.56229,-56.6552 -0.79074,-17.43223 0.74583,-35.322396 5.78115,-52.030284 3.9092,-12.971273 18.57935,-36.147339 18.57935,-36.147339"
       style="opacity:1;fill:none;fill-opacity:1;stroke:#000000;stroke-width:1;stroke-linecap:round;stroke-linejoin:miter;stroke-miterlimit:4;stroke-dasharray:none;stroke-dashoffset:0;stroke-opacity:1" />
    <path
       id="path4328"
       d="m 493.28473,248.29424 c 0,0 11.46908,-51.48001 22.77862,-75.05115 6.3971,-13.33273 15.26403,-25.52843 25.05162,-36.6139 8.85488,-10.02908 20.49663,-17.23932 30.06194,-26.59326 8.50079,-8.31295 24.22471,-26.181692 24.22471,-26.181692"
       style="opacity:1;fill:none;fill-opacity:1;stroke:#000000;stroke-width:1;stroke-linecap:round;stroke-linejoin:miter;stroke-miterlimit:4;stroke-dasharray:none;stroke-dashoffset:0;stroke-opacity:1" />
    <circle
       r="0.58988822"
       cy="405.38623"
       cx="192.94818"
       id="path4330-51-1"
       style="opacity:1;fill:#000000;fill-opacity:1;stroke:#000000;stroke-width:0.38263726;stroke-linecap:round;stroke-linejoin:miter;stroke-miterlimit:4;stroke-dasharray:none;stroke-dashoffset:0;stroke-opacity:1" />
    <circle
       r="0.58988822"
       cy="415.46967"
       cx="199.76132"
       id="path4330-51-9"
       style="opacity:1;fill:#000000;fill-opacity:1;stroke:#000000;stroke-width:0.38263726;stroke-linecap:round;stroke-linejoin:miter;stroke-miterlimit:4;stroke-dasharray:none;stroke-dashoffset:0;stroke-opacity:1" />
    <circle
       r="0.58988822"
       cy="425.28061"
       cx="203.57669"
       id="path4330-51-97"
       style="opacity:1;fill:#000000;fill-opacity:1;stroke:#000000;stroke-width:0.38263726;stroke-linecap:round;stroke-linejoin:miter;stroke-miterlimit:4;stroke-dasharray:none;stroke-dashoffset:0;stroke-opacity:1" />
    <circle
       r="0.58988822"
       cy="437.54425"
       cx="206.57446"
       id="path4330-51-8"
       style="opacity:1;fill:#000000;fill-opacity:1;stroke:#000000;stroke-width:0.38263726;stroke-linecap:round;stroke-linejoin:miter;stroke-miterlimit:4;stroke-dasharray:none;stroke-dashoffset:0;stroke-opacity:1" />
    <circle
       r="0.58988822"
       cy="451.17053"
       cx="206.02942"
       id="path4330-51-5"
       style="opacity:1;fill:#000000;fill-opacity:1;stroke:#000000;stroke-width:0.38263726;stroke-linecap:round;stroke-linejoin:miter;stroke-miterlimit:4;stroke-dasharray:none;stroke-dashoffset:0;stroke-opacity:1" />
    <circle
       r="0.58988822"
       cy="461.79904"
       cx="202.75911"
       id="path4330-51-7"
       style="opacity:1;fill:#000000;fill-opacity:1;stroke:#000000;stroke-width:0.38263726;stroke-linecap:round;stroke-linejoin:miter;stroke-miterlimit:4;stroke-dasharray:none;stroke-dashoffset:0;stroke-opacity:1" />
    <circle
       r="0.58988822"
       cy="473.24512"
       cx="200.03386"
       id="path4330-51-18"
       style="opacity:1;fill:#000000;fill-opacity:1;stroke:#000000;stroke-width:0.38263726;stroke-linecap:round;stroke-linejoin:miter;stroke-miterlimit:4;stroke-dasharray:none;stroke-dashoffset:0;stroke-opacity:1" />
    <circle
       r="0.58988822"
       cy="484.14615"
       cx="196.76355"
       id="path4330-51-4"
       style="opacity:1;fill:#000000;fill-opacity:1;stroke:#000000;stroke-width:0.38263726;stroke-linecap:round;stroke-linejoin:miter;stroke-miterlimit:4;stroke-dasharray:none;stroke-dashoffset:0;stroke-opacity:1" />
    <circle
       r="0.58988822"
       cy="382.49408"
       cx="236.82481"
       id="path4330-51-14"
       style="opacity:1;fill:#000000;fill-opacity:1;stroke:#000000;stroke-width:0.38263726;stroke-linecap:round;stroke-linejoin:miter;stroke-miterlimit:4;stroke-dasharray:none;stroke-dashoffset:0;stroke-opacity:1" />
    <circle
       r="0.58988822"
       cy="390.39731"
       cx="244.18301"
       id="path4330-51-59"
       style="opacity:1;fill:#000000;fill-opacity:1;stroke:#000000;stroke-width:0.38263726;stroke-linecap:round;stroke-linejoin:miter;stroke-miterlimit:4;stroke-dasharray:none;stroke-dashoffset:0;stroke-opacity:1" />
    <circle
       r="0.58988822"
       cy="398.57309"
       cx="250.72363"
       id="path4330-51-2"
       style="opacity:1;fill:#000000;fill-opacity:1;stroke:#000000;stroke-width:0.38263726;stroke-linecap:round;stroke-linejoin:miter;stroke-miterlimit:4;stroke-dasharray:none;stroke-dashoffset:0;stroke-opacity:1" />
    <circle
       r="0.58988822"
       cy="408.11148"
       cx="255.08405"
       id="path4330-51-11"
       style="opacity:1;fill:#000000;fill-opacity:1;stroke:#000000;stroke-width:0.38263726;stroke-linecap:round;stroke-linejoin:miter;stroke-miterlimit:4;stroke-dasharray:none;stroke-dashoffset:0;stroke-opacity:1" />
    <circle
       r="0.58988822"
       cy="419.83008"
       cx="259.44446"
       id="path4330-51-13"
       style="opacity:1;fill:#000000;fill-opacity:1;stroke:#000000;stroke-width:0.38263726;stroke-linecap:round;stroke-linejoin:miter;stroke-miterlimit:4;stroke-dasharray:none;stroke-dashoffset:0;stroke-opacity:1" />
    <circle
       r="0.58988822"
       cy="429.64102"
       cx="262.16971"
       id="path4330-51-80"
       style="opacity:1;fill:#000000;fill-opacity:1;stroke:#000000;stroke-width:0.38263726;stroke-linecap:round;stroke-linejoin:miter;stroke-miterlimit:4;stroke-dasharray:none;stroke-dashoffset:0;stroke-opacity:1" />
    <circle
       r="0.58988822"
       cy="438.90689"
       cx="263.25983"
       id="path4330-51-58"
       style="opacity:1;fill:#000000;fill-opacity:1;stroke:#000000;stroke-width:0.38263726;stroke-linecap:round;stroke-linejoin:miter;stroke-miterlimit:4;stroke-dasharray:none;stroke-dashoffset:0;stroke-opacity:1" />
    <circle
       r="0.58988822"
       cy="449.5354"
       cx="263.25983"
       id="path4330-51-43"
       style="opacity:1;fill:#000000;fill-opacity:1;stroke:#000000;stroke-width:0.38263726;stroke-linecap:round;stroke-linejoin:miter;stroke-miterlimit:4;stroke-dasharray:none;stroke-dashoffset:0;stroke-opacity:1" />
    <circle
       r="0.58988822"
       cy="462.61661"
       cx="262.44223"
       id="path4330-51-40"
       style="opacity:1;fill:#000000;fill-opacity:1;stroke:#000000;stroke-width:0.38263726;stroke-linecap:round;stroke-linejoin:miter;stroke-miterlimit:4;stroke-dasharray:none;stroke-dashoffset:0;stroke-opacity:1" />
    <circle
       r="0.58988822"
       cy="472.42755"
       cx="261.07962"
       id="path4330-51-86"
       style="opacity:1;fill:#000000;fill-opacity:1;stroke:#000000;stroke-width:0.38263726;stroke-linecap:round;stroke-linejoin:miter;stroke-miterlimit:4;stroke-dasharray:none;stroke-dashoffset:0;stroke-opacity:1" />
    <circle
       r="0.58988822"
       cy="484.14615"
       cx="257.26425"
       id="path4330-51-79"
       style="opacity:1;fill:#000000;fill-opacity:1;stroke:#000000;stroke-width:0.38263726;stroke-linecap:round;stroke-linejoin:miter;stroke-miterlimit:4;stroke-dasharray:none;stroke-dashoffset:0;stroke-opacity:1" />
    <circle
       r="0.58988822"
       cy="386.0369"
       cx="300.59583"
       id="path4330-51-78"
       style="opacity:1;fill:#000000;fill-opacity:1;stroke:#000000;stroke-width:0.38263726;stroke-linecap:round;stroke-linejoin:miter;stroke-miterlimit:4;stroke-dasharray:none;stroke-dashoffset:0;stroke-opacity:1" />
    <circle
       r="0.58988822"
       cy="395.30276"
       cx="302.77603"
       id="path4330-51-15"
       style="opacity:1;fill:#000000;fill-opacity:1;stroke:#000000;stroke-width:0.38263726;stroke-linecap:round;stroke-linejoin:miter;stroke-miterlimit:4;stroke-dasharray:none;stroke-dashoffset:0;stroke-opacity:1" />
    <circle
       r="0.58988822"
       cy="403.20602"
       cx="307.95401"
       id="path4330-51-6"
       style="opacity:1;fill:#000000;fill-opacity:1;stroke:#000000;stroke-width:0.38263726;stroke-linecap:round;stroke-linejoin:miter;stroke-miterlimit:4;stroke-dasharray:none;stroke-dashoffset:0;stroke-opacity:1" />
    <circle
       r="0.58988822"
       cy="413.01694"
       cx="309.58917"
       id="path4330-51-84"
       style="opacity:1;fill:#000000;fill-opacity:1;stroke:#000000;stroke-width:0.38263726;stroke-linecap:round;stroke-linejoin:miter;stroke-miterlimit:4;stroke-dasharray:none;stroke-dashoffset:0;stroke-opacity:1" />
    <circle
       r="0.58988822"
       cy="422.01028"
       cx="310.95181"
       id="path4330-51-0"
       style="opacity:1;fill:#000000;fill-opacity:1;stroke:#000000;stroke-width:0.38263726;stroke-linecap:round;stroke-linejoin:miter;stroke-miterlimit:4;stroke-dasharray:none;stroke-dashoffset:0;stroke-opacity:1" />
    <circle
       r="0.58988822"
       cy="432.91132"
       cx="311.76938"
       id="path4330-51-60"
       style="opacity:1;fill:#000000;fill-opacity:1;stroke:#000000;stroke-width:0.38263726;stroke-linecap:round;stroke-linejoin:miter;stroke-miterlimit:4;stroke-dasharray:none;stroke-dashoffset:0;stroke-opacity:1" />
    <circle
       r="0.58988822"
       cy="445.72003"
       cx="313.13202"
       id="path4330-51-116"
       style="opacity:1;fill:#000000;fill-opacity:1;stroke:#000000;stroke-width:0.38263726;stroke-linecap:round;stroke-linejoin:miter;stroke-miterlimit:4;stroke-dasharray:none;stroke-dashoffset:0;stroke-opacity:1" />
    <circle
       r="0.58988822"
       cy="453.62326"
       cx="312.0419"
       id="path4330-51-25"
       style="opacity:1;fill:#000000;fill-opacity:1;stroke:#000000;stroke-width:0.38263726;stroke-linecap:round;stroke-linejoin:miter;stroke-miterlimit:4;stroke-dasharray:none;stroke-dashoffset:0;stroke-opacity:1" />
    <circle
       r="0.58988822"
       cy="462.34409"
       cx="310.13422"
       id="path4330-51-73"
       style="opacity:1;fill:#000000;fill-opacity:1;stroke:#000000;stroke-width:0.38263726;stroke-linecap:round;stroke-linejoin:miter;stroke-miterlimit:4;stroke-dasharray:none;stroke-dashoffset:0;stroke-opacity:1" />
    <circle
       r="0.58988822"
       cy="472.9726"
       cx="307.68149"
       id="path4330-51-62"
       style="opacity:1;fill:#000000;fill-opacity:1;stroke:#000000;stroke-width:0.38263726;stroke-linecap:round;stroke-linejoin:miter;stroke-miterlimit:4;stroke-dasharray:none;stroke-dashoffset:0;stroke-opacity:1" />
    <circle
       r="0.58988822"
       cy="482.51099"
       cx="303.86615"
       id="path4330-51-3"
       style="opacity:1;fill:#000000;fill-opacity:1;stroke:#000000;stroke-width:0.38263726;stroke-linecap:round;stroke-linejoin:miter;stroke-miterlimit:4;stroke-dasharray:none;stroke-dashoffset:0;stroke-opacity:1" />
    <circle
       r="0.58988822"
       cy="389.85226"
       cx="345.29004"
       id="path4330-51-793"
       style="opacity:1;fill:#000000;fill-opacity:1;stroke:#000000;stroke-width:0.38263726;stroke-linecap:round;stroke-linejoin:miter;stroke-miterlimit:4;stroke-dasharray:none;stroke-dashoffset:0;stroke-opacity:1" />
    <circle
       r="0.58988822"
       cy="399.39066"
       cx="348.01529"
       id="path4330-51-32"
       style="opacity:1;fill:#000000;fill-opacity:1;stroke:#000000;stroke-width:0.38263726;stroke-linecap:round;stroke-linejoin:miter;stroke-miterlimit:4;stroke-dasharray:none;stroke-dashoffset:0;stroke-opacity:1" />
    <circle
       r="0.58988822"
       cy="408.92908"
       cx="351.55814"
       id="path4330-51-85"
       style="opacity:1;fill:#000000;fill-opacity:1;stroke:#000000;stroke-width:0.38263726;stroke-linecap:round;stroke-linejoin:miter;stroke-miterlimit:4;stroke-dasharray:none;stroke-dashoffset:0;stroke-opacity:1" />
    <circle
       r="0.58988822"
       cy="417.10483"
       cx="354.01086"
       id="path4330-51-26"
       style="opacity:1;fill:#000000;fill-opacity:1;stroke:#000000;stroke-width:0.38263726;stroke-linecap:round;stroke-linejoin:miter;stroke-miterlimit:4;stroke-dasharray:none;stroke-dashoffset:0;stroke-opacity:1" />
    <circle
       r="0.58988822"
       cy="424.73557"
       cx="355.10098"
       id="path4330-51-44"
       style="opacity:1;fill:#000000;fill-opacity:1;stroke:#000000;stroke-width:0.38263726;stroke-linecap:round;stroke-linejoin:miter;stroke-miterlimit:4;stroke-dasharray:none;stroke-dashoffset:0;stroke-opacity:1" />
    <circle
       r="0.58988822"
       cy="434.00143"
       cx="355.10098"
       id="path4330-51-627"
       style="opacity:1;fill:#000000;fill-opacity:1;stroke:#000000;stroke-width:0.38263726;stroke-linecap:round;stroke-linejoin:miter;stroke-miterlimit:4;stroke-dasharray:none;stroke-dashoffset:0;stroke-opacity:1" />
    <circle
       r="0.58988822"
       cy="447.35519"
       cx="353.73834"
       id="path4330-51-30"
       style="opacity:1;fill:#000000;fill-opacity:1;stroke:#000000;stroke-width:0.38263726;stroke-linecap:round;stroke-linejoin:miter;stroke-miterlimit:4;stroke-dasharray:none;stroke-dashoffset:0;stroke-opacity:1" />
    <circle
       r="0.58988822"
       cy="458.80127"
       cx="351.28561"
       id="path4330-51-57"
       style="opacity:1;fill:#000000;fill-opacity:1;stroke:#000000;stroke-width:0.38263726;stroke-linecap:round;stroke-linejoin:miter;stroke-miterlimit:4;stroke-dasharray:none;stroke-dashoffset:0;stroke-opacity:1" />
    <circle
       r="0.58988822"
       cy="468.33966"
       cx="352.10318"
       id="path4330-51-02"
       style="opacity:1;fill:#000000;fill-opacity:1;stroke:#000000;stroke-width:0.38263726;stroke-linecap:round;stroke-linejoin:miter;stroke-miterlimit:4;stroke-dasharray:none;stroke-dashoffset:0;stroke-opacity:1" />
    <circle
       r="0.58988822"
       cy="388.2171"
       cx="377.44806"
       id="path4330-51-83"
       style="opacity:1;fill:#000000;fill-opacity:1;stroke:#000000;stroke-width:0.38263726;stroke-linecap:round;stroke-linejoin:miter;stroke-miterlimit:4;stroke-dasharray:none;stroke-dashoffset:0;stroke-opacity:1" />
    <circle
       r="0.58988822"
       cy="396.39288"
       cx="379.90082"
       id="path4330-51-36"
       style="opacity:1;fill:#000000;fill-opacity:1;stroke:#000000;stroke-width:0.38263726;stroke-linecap:round;stroke-linejoin:miter;stroke-miterlimit:4;stroke-dasharray:none;stroke-dashoffset:0;stroke-opacity:1" />
    <circle
       r="0.58988822"
       cy="406.2038"
       cx="383.71616"
       id="path4330-51-585"
       style="opacity:1;fill:#000000;fill-opacity:1;stroke:#000000;stroke-width:0.38263726;stroke-linecap:round;stroke-linejoin:miter;stroke-miterlimit:4;stroke-dasharray:none;stroke-dashoffset:0;stroke-opacity:1" />
    <circle
       r="0.58988822"
       cy="418.19495"
       cx="385.35132"
       id="path4330-51-857"
       style="opacity:1;fill:#000000;fill-opacity:1;stroke:#000000;stroke-width:0.38263726;stroke-linecap:round;stroke-linejoin:miter;stroke-miterlimit:4;stroke-dasharray:none;stroke-dashoffset:0;stroke-opacity:1" />
    <circle
       r="0.58988822"
       cy="429.91354"
       cx="384.26123"
       id="path4330-51-34"
       style="opacity:1;fill:#000000;fill-opacity:1;stroke:#000000;stroke-width:0.38263726;stroke-linecap:round;stroke-linejoin:miter;stroke-miterlimit:4;stroke-dasharray:none;stroke-dashoffset:0;stroke-opacity:1" />
    <circle
       r="0.58988822"
       cy="440.2695"
       cx="382.08102"
       id="path4330-51-87"
       style="opacity:1;fill:#000000;fill-opacity:1;stroke:#000000;stroke-width:0.38263726;stroke-linecap:round;stroke-linejoin:miter;stroke-miterlimit:4;stroke-dasharray:none;stroke-dashoffset:0;stroke-opacity:1" />
    <circle
       r="0.58988822"
       cy="451.17053"
       cx="381.53595"
       id="path4330-51-91"
       style="opacity:1;fill:#000000;fill-opacity:1;stroke:#000000;stroke-width:0.38263726;stroke-linecap:round;stroke-linejoin:miter;stroke-miterlimit:4;stroke-dasharray:none;stroke-dashoffset:0;stroke-opacity:1" />
    <circle
       r="0.58988822"
       cy="459.34631"
       cx="381.53595"
       id="path4330-51-54"
       style="opacity:1;fill:#000000;fill-opacity:1;stroke:#000000;stroke-width:0.38263726;stroke-linecap:round;stroke-linejoin:miter;stroke-miterlimit:4;stroke-dasharray:none;stroke-dashoffset:0;stroke-opacity:1" />
    <circle
       r="0.58988822"
       cy="418.19495"
       cx="439.03888"
       id="path4330-51-51"
       style="opacity:1;fill:#000000;fill-opacity:1;stroke:#000000;stroke-width:0.38263726;stroke-linecap:round;stroke-linejoin:miter;stroke-miterlimit:4;stroke-dasharray:none;stroke-dashoffset:0;stroke-opacity:1" />
    <circle
       r="0.58988822"
       cy="426.91577"
       cx="436.04111"
       id="path4330-51-89"
       style="opacity:1;fill:#000000;fill-opacity:1;stroke:#000000;stroke-width:0.38263726;stroke-linecap:round;stroke-linejoin:miter;stroke-miterlimit:4;stroke-dasharray:none;stroke-dashoffset:0;stroke-opacity:1" />
    <circle
       r="0.58988822"
       cy="435.09152"
       cx="431.13562"
       id="path4330-51-90"
       style="opacity:1;fill:#000000;fill-opacity:1;stroke:#000000;stroke-width:0.38263726;stroke-linecap:round;stroke-linejoin:miter;stroke-miterlimit:4;stroke-dasharray:none;stroke-dashoffset:0;stroke-opacity:1" />
    <circle
       r="0.58988822"
       cy="441.35962"
       cx="422.95987"
       id="path4330-51-622"
       style="opacity:1;fill:#000000;fill-opacity:1;stroke:#000000;stroke-width:0.38263726;stroke-linecap:round;stroke-linejoin:miter;stroke-miterlimit:4;stroke-dasharray:none;stroke-dashoffset:0;stroke-opacity:1" />
    <circle
       r="0.58988822"
       cy="445.72003"
       cx="416.14673"
       id="path4330-51-403"
       style="opacity:1;fill:#000000;fill-opacity:1;stroke:#000000;stroke-width:0.38263726;stroke-linecap:round;stroke-linejoin:miter;stroke-miterlimit:4;stroke-dasharray:none;stroke-dashoffset:0;stroke-opacity:1" />
    <circle
       r="0.58988822"
       cy="451.44305"
       cx="409.60611"
       id="path4330-51-608"
       style="opacity:1;fill:#000000;fill-opacity:1;stroke:#000000;stroke-width:0.38263726;stroke-linecap:round;stroke-linejoin:miter;stroke-miterlimit:4;stroke-dasharray:none;stroke-dashoffset:0;stroke-opacity:1" />
    <circle
       r="0.58988822"
       cy="456.62106"
       cx="401.70285"
       id="path4330-51-96"
       style="opacity:1;fill:#000000;fill-opacity:1;stroke:#000000;stroke-width:0.38263726;stroke-linecap:round;stroke-linejoin:miter;stroke-miterlimit:4;stroke-dasharray:none;stroke-dashoffset:0;stroke-opacity:1" />
    <circle
       r="0.58988822"
       cy="460.70895"
       cx="389.43921"
       id="path4330-51-49"
       style="opacity:1;fill:#000000;fill-opacity:1;stroke:#000000;stroke-width:0.38263726;stroke-linecap:round;stroke-linejoin:miter;stroke-miterlimit:4;stroke-dasharray:none;stroke-dashoffset:0;stroke-opacity:1" />
    <circle
       r="0.58988822"
       cy="475.97037"
       cx="424.32248"
       id="path4330-51-146"
       style="opacity:1;fill:#000000;fill-opacity:1;stroke:#000000;stroke-width:0.38263726;stroke-linecap:round;stroke-linejoin:miter;stroke-miterlimit:4;stroke-dasharray:none;stroke-dashoffset:0;stroke-opacity:1" />
    <circle
       r="0.58988822"
       cy="474.33524"
       cx="414.78409"
       id="path4330-51-08"
       style="opacity:1;fill:#000000;fill-opacity:1;stroke:#000000;stroke-width:0.38263726;stroke-linecap:round;stroke-linejoin:miter;stroke-miterlimit:4;stroke-dasharray:none;stroke-dashoffset:0;stroke-opacity:1" />
    <circle
       r="0.58988822"
       cy="474.33524"
       cx="406.06326"
       id="path4330-51-28"
       style="opacity:1;fill:#000000;fill-opacity:1;stroke:#000000;stroke-width:0.38263726;stroke-linecap:round;stroke-linejoin:miter;stroke-miterlimit:4;stroke-dasharray:none;stroke-dashoffset:0;stroke-opacity:1" />
    <circle
       r="0.58988822"
       cy="474.88028"
       cx="399.25012"
       id="path4330-51-511"
       style="opacity:1;fill:#000000;fill-opacity:1;stroke:#000000;stroke-width:0.38263726;stroke-linecap:round;stroke-linejoin:miter;stroke-miterlimit:4;stroke-dasharray:none;stroke-dashoffset:0;stroke-opacity:1" />
    <circle
       r="0.58988822"
       cy="475.97037"
       cx="391.34689"
       id="path4330-51-05"
       style="opacity:1;fill:#000000;fill-opacity:1;stroke:#000000;stroke-width:0.38263726;stroke-linecap:round;stroke-linejoin:miter;stroke-miterlimit:4;stroke-dasharray:none;stroke-dashoffset:0;stroke-opacity:1" />
    <circle
       r="0.58988822"
       cy="232.60495"
       cx="450.75748"
       id="path4330-51-735"
       style="opacity:1;fill:#000000;fill-opacity:1;stroke:#000000;stroke-width:0.38263726;stroke-linecap:round;stroke-linejoin:miter;stroke-miterlimit:4;stroke-dasharray:none;stroke-dashoffset:0;stroke-opacity:1" />
    <circle
       r="0.58988822"
       cy="239.69061"
       cx="461.11346"
       id="path4330-51-837"
       style="opacity:1;fill:#000000;fill-opacity:1;stroke:#000000;stroke-width:0.38263726;stroke-linecap:round;stroke-linejoin:miter;stroke-miterlimit:4;stroke-dasharray:none;stroke-dashoffset:0;stroke-opacity:1" />
    <circle
       r="0.58988822"
       cy="248.1389"
       cx="469.01669"
       id="path4330-51-77"
       style="opacity:1;fill:#000000;fill-opacity:1;stroke:#000000;stroke-width:0.38263726;stroke-linecap:round;stroke-linejoin:miter;stroke-miterlimit:4;stroke-dasharray:none;stroke-dashoffset:0;stroke-opacity:1" />
    <circle
       r="0.58988822"
       cy="255.4971"
       cx="477.73752"
       id="path4330-51-01"
       style="opacity:1;fill:#000000;fill-opacity:1;stroke:#000000;stroke-width:0.38263726;stroke-linecap:round;stroke-linejoin:miter;stroke-miterlimit:4;stroke-dasharray:none;stroke-dashoffset:0;stroke-opacity:1" />
    <circle
       r="0.58988822"
       cy="261.49268"
       cx="481.28036"
       id="path4330-51-75"
       style="opacity:1;fill:#000000;fill-opacity:1;stroke:#000000;stroke-width:0.38263726;stroke-linecap:round;stroke-linejoin:miter;stroke-miterlimit:4;stroke-dasharray:none;stroke-dashoffset:0;stroke-opacity:1" />
    <circle
       r="0.58988822"
       cy="269.12338"
       cx="490.81876"
       id="path4330-51-7938"
       style="opacity:1;fill:#000000;fill-opacity:1;stroke:#000000;stroke-width:0.38263726;stroke-linecap:round;stroke-linejoin:miter;stroke-miterlimit:4;stroke-dasharray:none;stroke-dashoffset:0;stroke-opacity:1" />
    <circle
       r="0.58988822"
       cy="279.47937"
       cx="498.44949"
       id="path4330-51-579"
       style="opacity:1;fill:#000000;fill-opacity:1;stroke:#000000;stroke-width:0.38263726;stroke-linecap:round;stroke-linejoin:miter;stroke-miterlimit:4;stroke-dasharray:none;stroke-dashoffset:0;stroke-opacity:1" />
    <circle
       r="0.58988822"
       cy="288.47272"
       cx="509.62302"
       id="path4330-51-82"
       style="opacity:1;fill:#000000;fill-opacity:1;stroke:#000000;stroke-width:0.38263726;stroke-linecap:round;stroke-linejoin:miter;stroke-miterlimit:4;stroke-dasharray:none;stroke-dashoffset:0;stroke-opacity:1" />
    <circle
       r="0.58988822"
       cy="298.55615"
       cx="515.89111"
       id="path4330-51-68"
       style="opacity:1;fill:#000000;fill-opacity:1;stroke:#000000;stroke-width:0.38263726;stroke-linecap:round;stroke-linejoin:miter;stroke-miterlimit:4;stroke-dasharray:none;stroke-dashoffset:0;stroke-opacity:1" />
    <circle
       r="0.58988822"
       cy="307.82202"
       cx="522.97681"
       id="path4330-51-00"
       style="opacity:1;fill:#000000;fill-opacity:1;stroke:#000000;stroke-width:0.38263726;stroke-linecap:round;stroke-linejoin:miter;stroke-miterlimit:4;stroke-dasharray:none;stroke-dashoffset:0;stroke-opacity:1" />
    <circle
       r="0.58988822"
       cy="319.54065"
       cx="527.33722"
       id="path4330-51-972"
       style="opacity:1;fill:#000000;fill-opacity:1;stroke:#000000;stroke-width:0.38263726;stroke-linecap:round;stroke-linejoin:miter;stroke-miterlimit:4;stroke-dasharray:none;stroke-dashoffset:0;stroke-opacity:1" />
    <circle
       r="0.58988822"
       cy="331.25925"
       cx="533.06024"
       id="path4330-51-09"
       style="opacity:1;fill:#000000;fill-opacity:1;stroke:#000000;stroke-width:0.38263726;stroke-linecap:round;stroke-linejoin:miter;stroke-miterlimit:4;stroke-dasharray:none;stroke-dashoffset:0;stroke-opacity:1" />
    <circle
       r="0.58988822"
       cy="339.98007"
       cx="534.69537"
       id="path4330-51-9725"
       style="opacity:1;fill:#000000;fill-opacity:1;stroke:#000000;stroke-width:0.38263726;stroke-linecap:round;stroke-linejoin:miter;stroke-miterlimit:4;stroke-dasharray:none;stroke-dashoffset:0;stroke-opacity:1" />
    <circle
       r="0.58988822"
       cy="350.8811"
       cx="536.05804"
       id="path4330-51-874"
       style="opacity:1;fill:#000000;fill-opacity:1;stroke:#000000;stroke-width:0.38263726;stroke-linecap:round;stroke-linejoin:miter;stroke-miterlimit:4;stroke-dasharray:none;stroke-dashoffset:0;stroke-opacity:1" />
    <circle
       r="0.58988822"
       cy="363.68979"
       cx="537.9657"
       id="path4330-51-55"
       style="opacity:1;fill:#000000;fill-opacity:1;stroke:#000000;stroke-width:0.38263726;stroke-linecap:round;stroke-linejoin:miter;stroke-miterlimit:4;stroke-dasharray:none;stroke-dashoffset:0;stroke-opacity:1" />
    <circle
       r="0.58988822"
       cy="375.40842"
       cx="537.69318"
       id="path4330-51-46"
       style="opacity:1;fill:#000000;fill-opacity:1;stroke:#000000;stroke-width:0.38263726;stroke-linecap:round;stroke-linejoin:miter;stroke-miterlimit:4;stroke-dasharray:none;stroke-dashoffset:0;stroke-opacity:1" />
    <circle
       r="0.58988822"
       cy="243.50597"
       cx="368.45471"
       id="path4330-51-41"
       style="opacity:1;fill:#000000;fill-opacity:1;stroke:#000000;stroke-width:0.38263726;stroke-linecap:round;stroke-linejoin:miter;stroke-miterlimit:4;stroke-dasharray:none;stroke-dashoffset:0;stroke-opacity:1" />
    <circle
       r="0.58988822"
       cy="245.95871"
       cx="383.71616"
       id="path4330-51-545"
       style="opacity:1;fill:#000000;fill-opacity:1;stroke:#000000;stroke-width:0.38263726;stroke-linecap:round;stroke-linejoin:miter;stroke-miterlimit:4;stroke-dasharray:none;stroke-dashoffset:0;stroke-opacity:1" />
    <circle
       r="0.58988822"
       cy="249.50154"
       cx="397.61496"
       id="path4330-51-31"
       style="opacity:1;fill:#000000;fill-opacity:1;stroke:#000000;stroke-width:0.38263726;stroke-linecap:round;stroke-linejoin:miter;stroke-miterlimit:4;stroke-dasharray:none;stroke-dashoffset:0;stroke-opacity:1" />
    <circle
       r="0.58988822"
       cy="254.407"
       cx="411.78632"
       id="path4330-51-42"
       style="opacity:1;fill:#000000;fill-opacity:1;stroke:#000000;stroke-width:0.38263726;stroke-linecap:round;stroke-linejoin:miter;stroke-miterlimit:4;stroke-dasharray:none;stroke-dashoffset:0;stroke-opacity:1" />
    <circle
       r="0.58988822"
       cy="258.7674"
       cx="422.68735"
       id="path4330-51-260"
       style="opacity:1;fill:#000000;fill-opacity:1;stroke:#000000;stroke-width:0.38263726;stroke-linecap:round;stroke-linejoin:miter;stroke-miterlimit:4;stroke-dasharray:none;stroke-dashoffset:0;stroke-opacity:1" />
    <circle
       r="0.58988822"
       cy="264.21793"
       cx="431.68069"
       id="path4330-51-281"
       style="opacity:1;fill:#000000;fill-opacity:1;stroke:#000000;stroke-width:0.38263726;stroke-linecap:round;stroke-linejoin:miter;stroke-miterlimit:4;stroke-dasharray:none;stroke-dashoffset:0;stroke-opacity:1" />
    <circle
       r="0.58988822"
       cy="269.12338"
       cx="441.49161"
       id="path4330-51-17"
       style="opacity:1;fill:#000000;fill-opacity:1;stroke:#000000;stroke-width:0.38263726;stroke-linecap:round;stroke-linejoin:miter;stroke-miterlimit:4;stroke-dasharray:none;stroke-dashoffset:0;stroke-opacity:1" />
    <circle
       r="0.58988822"
       cy="278.11673"
       cx="452.93768"
       id="path4330-51-326"
       style="opacity:1;fill:#000000;fill-opacity:1;stroke:#000000;stroke-width:0.38263726;stroke-linecap:round;stroke-linejoin:miter;stroke-miterlimit:4;stroke-dasharray:none;stroke-dashoffset:0;stroke-opacity:1" />
    <circle
       r="0.58988822"
       cy="283.02219"
       cx="457.02557"
       id="path4330-51-411"
       style="opacity:1;fill:#000000;fill-opacity:1;stroke:#000000;stroke-width:0.38263726;stroke-linecap:round;stroke-linejoin:miter;stroke-miterlimit:4;stroke-dasharray:none;stroke-dashoffset:0;stroke-opacity:1" />
    <circle
       r="0.58988822"
       cy="293.92322"
       cx="466.29144"
       id="path4330-51-19"
       style="opacity:1;fill:#000000;fill-opacity:1;stroke:#000000;stroke-width:0.38263726;stroke-linecap:round;stroke-linejoin:miter;stroke-miterlimit:4;stroke-dasharray:none;stroke-dashoffset:0;stroke-opacity:1" />
    <circle
       r="0.58988822"
       cy="302.91656"
       cx="472.0145"
       id="path4330-51-06"
       style="opacity:1;fill:#000000;fill-opacity:1;stroke:#000000;stroke-width:0.38263726;stroke-linecap:round;stroke-linejoin:miter;stroke-miterlimit:4;stroke-dasharray:none;stroke-dashoffset:0;stroke-opacity:1" />
    <circle
       r="0.58988822"
       cy="311.36487"
       cx="477.465"
       id="path4330-51-67"
       style="opacity:1;fill:#000000;fill-opacity:1;stroke:#000000;stroke-width:0.38263726;stroke-linecap:round;stroke-linejoin:miter;stroke-miterlimit:4;stroke-dasharray:none;stroke-dashoffset:0;stroke-opacity:1" />
    <circle
       r="0.58988822"
       cy="320.63074"
       cx="481.28036"
       id="path4330-51-22"
       style="opacity:1;fill:#000000;fill-opacity:1;stroke:#000000;stroke-width:0.38263726;stroke-linecap:round;stroke-linejoin:miter;stroke-miterlimit:4;stroke-dasharray:none;stroke-dashoffset:0;stroke-opacity:1" />
    <circle
       r="0.58988822"
       cy="329.62408"
       cx="489.18359"
       id="path4330-51-24"
       style="opacity:1;fill:#000000;fill-opacity:1;stroke:#000000;stroke-width:0.38263726;stroke-linecap:round;stroke-linejoin:miter;stroke-miterlimit:4;stroke-dasharray:none;stroke-dashoffset:0;stroke-opacity:1" />
    <circle
       r="0.58988822"
       cy="340.79764"
       cx="490.81876"
       id="path4330-51-781"
       style="opacity:1;fill:#000000;fill-opacity:1;stroke:#000000;stroke-width:0.38263726;stroke-linecap:round;stroke-linejoin:miter;stroke-miterlimit:4;stroke-dasharray:none;stroke-dashoffset:0;stroke-opacity:1" />
    <circle
       r="0.58988822"
       cy="350.06351"
       cx="492.99896"
       id="path4330-51-21"
       style="opacity:1;fill:#000000;fill-opacity:1;stroke:#000000;stroke-width:0.38263726;stroke-linecap:round;stroke-linejoin:miter;stroke-miterlimit:4;stroke-dasharray:none;stroke-dashoffset:0;stroke-opacity:1" />
    <circle
       r="0.58988822"
       cy="359.87445"
       cx="494.90665"
       id="path4330-51-573"
       style="opacity:1;fill:#000000;fill-opacity:1;stroke:#000000;stroke-width:0.38263726;stroke-linecap:round;stroke-linejoin:miter;stroke-miterlimit:4;stroke-dasharray:none;stroke-dashoffset:0;stroke-opacity:1" />
    <circle
       r="0.58988822"
       cy="368.8678"
       cx="495.17917"
       id="path4330-51-47"
       style="opacity:1;fill:#000000;fill-opacity:1;stroke:#000000;stroke-width:0.38263726;stroke-linecap:round;stroke-linejoin:miter;stroke-miterlimit:4;stroke-dasharray:none;stroke-dashoffset:0;stroke-opacity:1" />
    <circle
       r="0.58988822"
       cy="384.12921"
       cx="493.81653"
       id="path4330-51-64"
       style="opacity:1;fill:#000000;fill-opacity:1;stroke:#000000;stroke-width:0.38263726;stroke-linecap:round;stroke-linejoin:miter;stroke-miterlimit:4;stroke-dasharray:none;stroke-dashoffset:0;stroke-opacity:1" />
    <circle
       r="0.58988822"
       cy="396.39288"
       cx="494.08908"
       id="path4330-51-092"
       style="opacity:1;fill:#000000;fill-opacity:1;stroke:#000000;stroke-width:0.38263726;stroke-linecap:round;stroke-linejoin:miter;stroke-miterlimit:4;stroke-dasharray:none;stroke-dashoffset:0;stroke-opacity:1" />
    <circle
       r="0.58988822"
       cy="413.01694"
       cx="492.72644"
       id="path4330-51-318"
       style="opacity:1;fill:#000000;fill-opacity:1;stroke:#000000;stroke-width:0.38263726;stroke-linecap:round;stroke-linejoin:miter;stroke-miterlimit:4;stroke-dasharray:none;stroke-dashoffset:0;stroke-opacity:1" />
    <circle
       r="0.58988822"
       cy="423.91797"
       cx="492.45392"
       id="path4330-51-03"
       style="opacity:1;fill:#000000;fill-opacity:1;stroke:#000000;stroke-width:0.38263726;stroke-linecap:round;stroke-linejoin:miter;stroke-miterlimit:4;stroke-dasharray:none;stroke-dashoffset:0;stroke-opacity:1" />
    <circle
       r="0.58988822"
       cy="431.27615"
       cx="493.81653"
       id="path4330-51-114"
       style="opacity:1;fill:#000000;fill-opacity:1;stroke:#000000;stroke-width:0.38263726;stroke-linecap:round;stroke-linejoin:miter;stroke-miterlimit:4;stroke-dasharray:none;stroke-dashoffset:0;stroke-opacity:1" />
    <circle
       r="0.58988822"
       cy="370.77545"
       cx="445.03445"
       id="path4330-51-29"
       style="opacity:1;fill:#000000;fill-opacity:1;stroke:#000000;stroke-width:0.38263726;stroke-linecap:round;stroke-linejoin:miter;stroke-miterlimit:4;stroke-dasharray:none;stroke-dashoffset:0;stroke-opacity:1" />
    <circle
       r="0.58988822"
       cy="377.86115"
       cx="446.39706"
       id="path4330-51-194"
       style="opacity:1;fill:#000000;fill-opacity:1;stroke:#000000;stroke-width:0.38263726;stroke-linecap:round;stroke-linejoin:miter;stroke-miterlimit:4;stroke-dasharray:none;stroke-dashoffset:0;stroke-opacity:1" />
    <circle
       r="0.58988822"
       cy="387.67206"
       cx="448.84979"
       id="path4330-51-53"
       style="opacity:1;fill:#000000;fill-opacity:1;stroke:#000000;stroke-width:0.38263726;stroke-linecap:round;stroke-linejoin:miter;stroke-miterlimit:4;stroke-dasharray:none;stroke-dashoffset:0;stroke-opacity:1" />
    <circle
       r="0.58988822"
       cy="400.7533"
       cx="449.39487"
       id="path4330-51-031"
       style="opacity:1;fill:#000000;fill-opacity:1;stroke:#000000;stroke-width:0.38263726;stroke-linecap:round;stroke-linejoin:miter;stroke-miterlimit:4;stroke-dasharray:none;stroke-dashoffset:0;stroke-opacity:1" />
    <circle
       r="0.58988822"
       cy="406.74887"
       cx="451.8476"
       id="path4330-51-175"
       style="opacity:1;fill:#000000;fill-opacity:1;stroke:#000000;stroke-width:0.38263726;stroke-linecap:round;stroke-linejoin:miter;stroke-miterlimit:4;stroke-dasharray:none;stroke-dashoffset:0;stroke-opacity:1" />
    <circle
       r="0.58988822"
       cy="416.28726"
       cx="455.93549"
       id="path4330-51-840"
       style="opacity:1;fill:#000000;fill-opacity:1;stroke:#000000;stroke-width:0.38263726;stroke-linecap:round;stroke-linejoin:miter;stroke-miterlimit:4;stroke-dasharray:none;stroke-dashoffset:0;stroke-opacity:1" />
    <circle
       r="0.58988822"
       cy="426.64322"
       cx="460.02335"
       id="path4330-51-248"
       style="opacity:1;fill:#000000;fill-opacity:1;stroke:#000000;stroke-width:0.38263726;stroke-linecap:round;stroke-linejoin:miter;stroke-miterlimit:4;stroke-dasharray:none;stroke-dashoffset:0;stroke-opacity:1" />
    <circle
       r="0.58988822"
       cy="437.54425"
       cx="464.65628"
       id="path4330-51-94"
       style="opacity:1;fill:#000000;fill-opacity:1;stroke:#000000;stroke-width:0.38263726;stroke-linecap:round;stroke-linejoin:miter;stroke-miterlimit:4;stroke-dasharray:none;stroke-dashoffset:0;stroke-opacity:1" />
    <circle
       r="0.58988822"
       cy="445.99255"
       cx="467.10904"
       id="path4330-51-81"
       style="opacity:1;fill:#000000;fill-opacity:1;stroke:#000000;stroke-width:0.38263726;stroke-linecap:round;stroke-linejoin:miter;stroke-miterlimit:4;stroke-dasharray:none;stroke-dashoffset:0;stroke-opacity:1" />
    <circle
       r="0.58988822"
       cy="281.1145"
       cx="329.48355"
       id="path4330-51-091"
       style="opacity:1;fill:#000000;fill-opacity:1;stroke:#000000;stroke-width:0.38263726;stroke-linecap:round;stroke-linejoin:miter;stroke-miterlimit:4;stroke-dasharray:none;stroke-dashoffset:0;stroke-opacity:1" />
    <circle
       r="0.58988822"
       cy="279.20685"
       cx="338.74942"
       id="path4330-51-04"
       style="opacity:1;fill:#000000;fill-opacity:1;stroke:#000000;stroke-width:0.38263726;stroke-linecap:round;stroke-linejoin:miter;stroke-miterlimit:4;stroke-dasharray:none;stroke-dashoffset:0;stroke-opacity:1" />
    <circle
       r="0.58988822"
       cy="277.29916"
       cx="349.65045"
       id="path4330-51-33"
       style="opacity:1;fill:#000000;fill-opacity:1;stroke:#000000;stroke-width:0.38263726;stroke-linecap:round;stroke-linejoin:miter;stroke-miterlimit:4;stroke-dasharray:none;stroke-dashoffset:0;stroke-opacity:1" />
    <circle
       r="0.58988822"
       cy="276.20905"
       cx="362.45917"
       id="path4330-51-155"
       style="opacity:1;fill:#000000;fill-opacity:1;stroke:#000000;stroke-width:0.38263726;stroke-linecap:round;stroke-linejoin:miter;stroke-miterlimit:4;stroke-dasharray:none;stroke-dashoffset:0;stroke-opacity:1" />
    <circle
       r="0.58988822"
       cy="275.39148"
       cx="375.26788"
       id="path4330-51-249"
       style="opacity:1;fill:#000000;fill-opacity:1;stroke:#000000;stroke-width:0.38263726;stroke-linecap:round;stroke-linejoin:miter;stroke-miterlimit:4;stroke-dasharray:none;stroke-dashoffset:0;stroke-opacity:1" />
    <circle
       r="0.58988822"
       cy="277.57169"
       cx="387.80405"
       id="path4330-51-70"
       style="opacity:1;fill:#000000;fill-opacity:1;stroke:#000000;stroke-width:0.38263726;stroke-linecap:round;stroke-linejoin:miter;stroke-miterlimit:4;stroke-dasharray:none;stroke-dashoffset:0;stroke-opacity:1" />
    <circle
       r="0.58988822"
       cy="281.1145"
       cx="393.79962"
       id="path4330-51-92"
       style="opacity:1;fill:#000000;fill-opacity:1;stroke:#000000;stroke-width:0.38263726;stroke-linecap:round;stroke-linejoin:miter;stroke-miterlimit:4;stroke-dasharray:none;stroke-dashoffset:0;stroke-opacity:1" />
    <circle
       r="0.58988822"
       cy="284.92987"
       cx="401.97537"
       id="path4330-51-10"
       style="opacity:1;fill:#000000;fill-opacity:1;stroke:#000000;stroke-width:0.38263726;stroke-linecap:round;stroke-linejoin:miter;stroke-miterlimit:4;stroke-dasharray:none;stroke-dashoffset:0;stroke-opacity:1" />
    <circle
       r="0.58988822"
       cy="326.35379"
       cx="331.93628"
       id="path4330-51-288"
       style="opacity:1;fill:#000000;fill-opacity:1;stroke:#000000;stroke-width:0.38263726;stroke-linecap:round;stroke-linejoin:miter;stroke-miterlimit:4;stroke-dasharray:none;stroke-dashoffset:0;stroke-opacity:1" />
    <circle
       r="0.58988822"
       cy="323.35599"
       cx="343.10983"
       id="path4330-51-61"
       style="opacity:1;fill:#000000;fill-opacity:1;stroke:#000000;stroke-width:0.38263726;stroke-linecap:round;stroke-linejoin:miter;stroke-miterlimit:4;stroke-dasharray:none;stroke-dashoffset:0;stroke-opacity:1" />
    <circle
       r="0.58988822"
       cy="322.2659"
       cx="358.09875"
       id="path4330-51-329"
       style="opacity:1;fill:#000000;fill-opacity:1;stroke:#000000;stroke-width:0.38263726;stroke-linecap:round;stroke-linejoin:miter;stroke-miterlimit:4;stroke-dasharray:none;stroke-dashoffset:0;stroke-opacity:1" />
    <circle
       r="0.58988822"
       cy="325.80872"
       cx="367.90967"
       id="path4330-51-27"
       style="opacity:1;fill:#000000;fill-opacity:1;stroke:#000000;stroke-width:0.38263726;stroke-linecap:round;stroke-linejoin:miter;stroke-miterlimit:4;stroke-dasharray:none;stroke-dashoffset:0;stroke-opacity:1" />
    <circle
       r="0.58988822"
       cy="327.98892"
       cx="374.99533"
       id="path4330-51-759"
       style="opacity:1;fill:#000000;fill-opacity:1;stroke:#000000;stroke-width:0.38263726;stroke-linecap:round;stroke-linejoin:miter;stroke-miterlimit:4;stroke-dasharray:none;stroke-dashoffset:0;stroke-opacity:1" />
    <circle
       r="0.58988822"
       cy="333.43945"
       cx="381.26343"
       id="path4330-51-961"
       style="opacity:1;fill:#000000;fill-opacity:1;stroke:#000000;stroke-width:0.38263726;stroke-linecap:round;stroke-linejoin:miter;stroke-miterlimit:4;stroke-dasharray:none;stroke-dashoffset:0;stroke-opacity:1" />
    <circle
       r="0.58988822"
       cy="353.33383"
       cx="320.21768"
       id="path4330-51-594"
       style="opacity:1;fill:#000000;fill-opacity:1;stroke:#000000;stroke-width:0.38263726;stroke-linecap:round;stroke-linejoin:miter;stroke-miterlimit:4;stroke-dasharray:none;stroke-dashoffset:0;stroke-opacity:1" />
    <circle
       r="0.58988822"
       cy="352.78876"
       cx="328.66599"
       id="path4330-51-66"
       style="opacity:1;fill:#000000;fill-opacity:1;stroke:#000000;stroke-width:0.38263726;stroke-linecap:round;stroke-linejoin:miter;stroke-miterlimit:4;stroke-dasharray:none;stroke-dashoffset:0;stroke-opacity:1" />
    <circle
       r="0.58988822"
       cy="352.24371"
       cx="335.75165"
       id="path4330-51-903"
       style="opacity:1;fill:#000000;fill-opacity:1;stroke:#000000;stroke-width:0.38263726;stroke-linecap:round;stroke-linejoin:miter;stroke-miterlimit:4;stroke-dasharray:none;stroke-dashoffset:0;stroke-opacity:1" />
    <circle
       r="0.58988822"
       cy="351.97119"
       cx="344.47247"
       id="path4330-51-003"
       style="opacity:1;fill:#000000;fill-opacity:1;stroke:#000000;stroke-width:0.38263726;stroke-linecap:round;stroke-linejoin:miter;stroke-miterlimit:4;stroke-dasharray:none;stroke-dashoffset:0;stroke-opacity:1" />
    <circle
       r="0.58988822"
       cy="351.97119"
       cx="354.55591"
       id="path4330-51-946"
       style="opacity:1;fill:#000000;fill-opacity:1;stroke:#000000;stroke-width:0.38263726;stroke-linecap:round;stroke-linejoin:miter;stroke-miterlimit:4;stroke-dasharray:none;stroke-dashoffset:0;stroke-opacity:1" />
    <circle
       r="0.58988822"
       cy="355.78656"
       cx="361.09653"
       id="path4330-51-16"
       style="opacity:1;fill:#000000;fill-opacity:1;stroke:#000000;stroke-width:0.38263726;stroke-linecap:round;stroke-linejoin:miter;stroke-miterlimit:4;stroke-dasharray:none;stroke-dashoffset:0;stroke-opacity:1" />
    <circle
       r="0.58988822"
       cy="360.96454"
       cx="368.45471"
       id="path4330-51-72"
       style="opacity:1;fill:#000000;fill-opacity:1;stroke:#000000;stroke-width:0.38263726;stroke-linecap:round;stroke-linejoin:miter;stroke-miterlimit:4;stroke-dasharray:none;stroke-dashoffset:0;stroke-opacity:1" />
    <circle
       r="0.58988822"
       cy="365.32495"
       cx="372.27008"
       id="path4330-51-5857"
       style="opacity:1;fill:#000000;fill-opacity:1;stroke:#000000;stroke-width:0.38263726;stroke-linecap:round;stroke-linejoin:miter;stroke-miterlimit:4;stroke-dasharray:none;stroke-dashoffset:0;stroke-opacity:1" />
    <circle
       r="0.58988822"
       cy="369.41284"
       cx="377.44806"
       id="path4330-51-796"
       style="opacity:1;fill:#000000;fill-opacity:1;stroke:#000000;stroke-width:0.38263726;stroke-linecap:round;stroke-linejoin:miter;stroke-miterlimit:4;stroke-dasharray:none;stroke-dashoffset:0;stroke-opacity:1" />
    <circle
       r="0.58988822"
       cy="327.17136"
       cx="273.88831"
       id="path4330-51-74"
       style="opacity:1;fill:#000000;fill-opacity:1;stroke:#000000;stroke-width:0.38263726;stroke-linecap:round;stroke-linejoin:miter;stroke-miterlimit:4;stroke-dasharray:none;stroke-dashoffset:0;stroke-opacity:1" />
    <circle
       r="0.58988822"
       cy="331.80429"
       cx="270.07297"
       id="path4330-51-582"
       style="opacity:1;fill:#000000;fill-opacity:1;stroke:#000000;stroke-width:0.38263726;stroke-linecap:round;stroke-linejoin:miter;stroke-miterlimit:4;stroke-dasharray:none;stroke-dashoffset:0;stroke-opacity:1" />
    <circle
       r="0.58988822"
       cy="338.07239"
       cx="263.80487"
       id="path4330-51-854"
       style="opacity:1;fill:#000000;fill-opacity:1;stroke:#000000;stroke-width:0.38263726;stroke-linecap:round;stroke-linejoin:miter;stroke-miterlimit:4;stroke-dasharray:none;stroke-dashoffset:0;stroke-opacity:1" />
    <circle
       r="0.58988822"
       cy="344.88553"
       cx="260.80707"
       id="path4330-51-322"
       style="opacity:1;fill:#000000;fill-opacity:1;stroke:#000000;stroke-width:0.38263726;stroke-linecap:round;stroke-linejoin:miter;stroke-miterlimit:4;stroke-dasharray:none;stroke-dashoffset:0;stroke-opacity:1" />
    <circle
       r="0.58988822"
       cy="353.06131"
       cx="256.71921"
       id="path4330-51-445"
       style="opacity:1;fill:#000000;fill-opacity:1;stroke:#000000;stroke-width:0.38263726;stroke-linecap:round;stroke-linejoin:miter;stroke-miterlimit:4;stroke-dasharray:none;stroke-dashoffset:0;stroke-opacity:1" />
    <circle
       r="0.58988822"
       cy="362.05466"
       cx="255.90161"
       id="path4330-51-540"
       style="opacity:1;fill:#000000;fill-opacity:1;stroke:#000000;stroke-width:0.38263726;stroke-linecap:round;stroke-linejoin:miter;stroke-miterlimit:4;stroke-dasharray:none;stroke-dashoffset:0;stroke-opacity:1" />
    <circle
       r="0.58988822"
       cy="369.68536"
       cx="252.90384"
       id="path4330-51-617"
       style="opacity:1;fill:#000000;fill-opacity:1;stroke:#000000;stroke-width:0.38263726;stroke-linecap:round;stroke-linejoin:miter;stroke-miterlimit:4;stroke-dasharray:none;stroke-dashoffset:0;stroke-opacity:1" />
    <circle
       r="0.58988822"
       cy="48.377579"
       cx="334.38901"
       id="path4330-51-8742"
       style="opacity:1;fill:#000000;fill-opacity:1;stroke:#000000;stroke-width:0.38263726;stroke-linecap:round;stroke-linejoin:miter;stroke-miterlimit:4;stroke-dasharray:none;stroke-dashoffset:0;stroke-opacity:1" />
    <circle
       r="0.58988822"
       cy="57.915977"
       cx="328.39346"
       id="path4330-51-229"
       style="opacity:1;fill:#000000;fill-opacity:1;stroke:#000000;stroke-width:0.38263726;stroke-linecap:round;stroke-linejoin:miter;stroke-miterlimit:4;stroke-dasharray:none;stroke-dashoffset:0;stroke-opacity:1" />
    <circle
       r="0.58988822"
       cy="69.907112"
       cx="322.94293"
       id="path4330-51-218"
       style="opacity:1;fill:#000000;fill-opacity:1;stroke:#000000;stroke-width:0.38263726;stroke-linecap:round;stroke-linejoin:miter;stroke-miterlimit:4;stroke-dasharray:none;stroke-dashoffset:0;stroke-opacity:1" />
    <circle
       r="0.58988822"
       cy="78.62793"
       cx="319.94516"
       id="path4330-51-084"
       style="opacity:1;fill:#000000;fill-opacity:1;stroke:#000000;stroke-width:0.38263726;stroke-linecap:round;stroke-linejoin:miter;stroke-miterlimit:4;stroke-dasharray:none;stroke-dashoffset:0;stroke-opacity:1" />
    <circle
       r="0.58988822"
       cy="94.161896"
       cx="317.76495"
       id="path4330-51-868"
       style="opacity:1;fill:#000000;fill-opacity:1;stroke:#000000;stroke-width:0.38263726;stroke-linecap:round;stroke-linejoin:miter;stroke-miterlimit:4;stroke-dasharray:none;stroke-dashoffset:0;stroke-opacity:1" />
    <circle
       r="0.58988822"
       cy="103.42777"
       cx="316.94736"
       id="path4330-51-6221"
       style="opacity:1;fill:#000000;fill-opacity:1;stroke:#000000;stroke-width:0.38263726;stroke-linecap:round;stroke-linejoin:miter;stroke-miterlimit:4;stroke-dasharray:none;stroke-dashoffset:0;stroke-opacity:1" />
    <circle
       r="0.58988822"
       cy="115.14637"
       cx="316.12979"
       id="path4330-51-676"
       style="opacity:1;fill:#000000;fill-opacity:1;stroke:#000000;stroke-width:0.38263726;stroke-linecap:round;stroke-linejoin:miter;stroke-miterlimit:4;stroke-dasharray:none;stroke-dashoffset:0;stroke-opacity:1" />
    <circle
       r="0.58988822"
       cy="129.86276"
       cx="317.21991"
       id="path4330-51-223"
       style="opacity:1;fill:#000000;fill-opacity:1;stroke:#000000;stroke-width:0.38263726;stroke-linecap:round;stroke-linejoin:miter;stroke-miterlimit:4;stroke-dasharray:none;stroke-dashoffset:0;stroke-opacity:1" />
    <circle
       r="0.58988822"
       cy="143.48904"
       cx="319.12756"
       id="path4330-51-93"
       style="opacity:1;fill:#000000;fill-opacity:1;stroke:#000000;stroke-width:0.38263726;stroke-linecap:round;stroke-linejoin:miter;stroke-miterlimit:4;stroke-dasharray:none;stroke-dashoffset:0;stroke-opacity:1" />
    <circle
       r="0.58988822"
       cy="157.66039"
       cx="320.4902"
       id="path4330-51-102"
       style="opacity:1;fill:#000000;fill-opacity:1;stroke:#000000;stroke-width:0.38263726;stroke-linecap:round;stroke-linejoin:miter;stroke-miterlimit:4;stroke-dasharray:none;stroke-dashoffset:0;stroke-opacity:1" />
    <circle
       r="0.58988822"
       cy="172.92181"
       cx="325.66818"
       id="path4330-51-99"
       style="opacity:1;fill:#000000;fill-opacity:1;stroke:#000000;stroke-width:0.38263726;stroke-linecap:round;stroke-linejoin:miter;stroke-miterlimit:4;stroke-dasharray:none;stroke-dashoffset:0;stroke-opacity:1" />
    <circle
       r="0.58988822"
       cy="183.82285"
       cx="330.30112"
       id="path4330-51-614"
       style="opacity:1;fill:#000000;fill-opacity:1;stroke:#000000;stroke-width:0.38263726;stroke-linecap:round;stroke-linejoin:miter;stroke-miterlimit:4;stroke-dasharray:none;stroke-dashoffset:0;stroke-opacity:1" />
    <circle
       r="0.58988822"
       cy="196.63155"
       cx="334.38901"
       id="path4330-51-006"
       style="opacity:1;fill:#000000;fill-opacity:1;stroke:#000000;stroke-width:0.38263726;stroke-linecap:round;stroke-linejoin:miter;stroke-miterlimit:4;stroke-dasharray:none;stroke-dashoffset:0;stroke-opacity:1" />
    <circle
       r="0.58988822"
       cy="207.26006"
       cx="338.20438"
       id="path4330-51-108"
       style="opacity:1;fill:#000000;fill-opacity:1;stroke:#000000;stroke-width:0.38263726;stroke-linecap:round;stroke-linejoin:miter;stroke-miterlimit:4;stroke-dasharray:none;stroke-dashoffset:0;stroke-opacity:1" />
    <circle
       r="0.58988822"
       cy="216.2534"
       cx="342.56479"
       id="path4330-51-266"
       style="opacity:1;fill:#000000;fill-opacity:1;stroke:#000000;stroke-width:0.38263726;stroke-linecap:round;stroke-linejoin:miter;stroke-miterlimit:4;stroke-dasharray:none;stroke-dashoffset:0;stroke-opacity:1" />
    <circle
       r="0.58988822"
       cy="225.24675"
       cx="345.56256"
       id="path4330-51-053"
       style="opacity:1;fill:#000000;fill-opacity:1;stroke:#000000;stroke-width:0.38263726;stroke-linecap:round;stroke-linejoin:miter;stroke-miterlimit:4;stroke-dasharray:none;stroke-dashoffset:0;stroke-opacity:1" />
    <circle
       r="0.58988822"
       cy="235.60272"
       cx="350.74057"
       id="path4330-51-494"
       style="opacity:1;fill:#000000;fill-opacity:1;stroke:#000000;stroke-width:0.38263726;stroke-linecap:round;stroke-linejoin:miter;stroke-miterlimit:4;stroke-dasharray:none;stroke-dashoffset:0;stroke-opacity:1" />
    <circle
       r="0.58988822"
       cy="93.071793"
       cx="584.56757"
       id="path4330-51-262"
       style="opacity:1;fill:#000000;fill-opacity:1;stroke:#000000;stroke-width:0.38263726;stroke-linecap:round;stroke-linejoin:miter;stroke-miterlimit:4;stroke-dasharray:none;stroke-dashoffset:0;stroke-opacity:1" />
    <circle
       r="0.58988822"
       cy="101.24757"
       cx="575.8468"
       id="path4330-51-515"
       style="opacity:1;fill:#000000;fill-opacity:1;stroke:#000000;stroke-width:0.38263726;stroke-linecap:round;stroke-linejoin:miter;stroke-miterlimit:4;stroke-dasharray:none;stroke-dashoffset:0;stroke-opacity:1" />
    <circle
       r="0.58988822"
       cy="108.06071"
       cx="569.03363"
       id="path4330-51-467"
       style="opacity:1;fill:#000000;fill-opacity:1;stroke:#000000;stroke-width:0.38263726;stroke-linecap:round;stroke-linejoin:miter;stroke-miterlimit:4;stroke-dasharray:none;stroke-dashoffset:0;stroke-opacity:1" />
    <circle
       r="0.58988822"
       cy="114.60132"
       cx="562.22046"
       id="path4330-51-688"
       style="opacity:1;fill:#000000;fill-opacity:1;stroke:#000000;stroke-width:0.38263726;stroke-linecap:round;stroke-linejoin:miter;stroke-miterlimit:4;stroke-dasharray:none;stroke-dashoffset:0;stroke-opacity:1" />
    <circle
       r="0.58988822"
       cy="120.05183"
       cx="554.8623"
       id="path4330-51-56"
       style="opacity:1;fill:#000000;fill-opacity:1;stroke:#000000;stroke-width:0.38263726;stroke-linecap:round;stroke-linejoin:miter;stroke-miterlimit:4;stroke-dasharray:none;stroke-dashoffset:0;stroke-opacity:1" />
    <circle
       r="0.58988822"
       cy="125.22982"
       cx="546.414"
       id="path4330-51-296"
       style="opacity:1;fill:#000000;fill-opacity:1;stroke:#000000;stroke-width:0.38263726;stroke-linecap:round;stroke-linejoin:miter;stroke-miterlimit:4;stroke-dasharray:none;stroke-dashoffset:0;stroke-opacity:1" />
    <circle
       r="0.58988822"
       cy="135.31328"
       cx="539.60083"
       id="path4330-51-477"
       style="opacity:1;fill:#000000;fill-opacity:1;stroke:#000000;stroke-width:0.38263726;stroke-linecap:round;stroke-linejoin:miter;stroke-miterlimit:4;stroke-dasharray:none;stroke-dashoffset:0;stroke-opacity:1" />
    <circle
       r="0.58988822"
       cy="144.57915"
       cx="531.97015"
       id="path4330-51-76"
       style="opacity:1;fill:#000000;fill-opacity:1;stroke:#000000;stroke-width:0.38263726;stroke-linecap:round;stroke-linejoin:miter;stroke-miterlimit:4;stroke-dasharray:none;stroke-dashoffset:0;stroke-opacity:1" />
    <circle
       r="0.58988822"
       cy="153.02745"
       cx="525.70203"
       id="path4330-51-934"
       style="opacity:1;fill:#000000;fill-opacity:1;stroke:#000000;stroke-width:0.38263726;stroke-linecap:round;stroke-linejoin:miter;stroke-miterlimit:4;stroke-dasharray:none;stroke-dashoffset:0;stroke-opacity:1" />
    <circle
       r="0.58988822"
       cy="162.56584"
       cx="519.70648"
       id="path4330-51-20"
       style="opacity:1;fill:#000000;fill-opacity:1;stroke:#000000;stroke-width:0.38263726;stroke-linecap:round;stroke-linejoin:miter;stroke-miterlimit:4;stroke-dasharray:none;stroke-dashoffset:0;stroke-opacity:1" />
    <circle
       r="0.58988822"
       cy="171.83171"
       cx="512.34827"
       id="path4330-51-762"
       style="opacity:1;fill:#000000;fill-opacity:1;stroke:#000000;stroke-width:0.38263726;stroke-linecap:round;stroke-linejoin:miter;stroke-miterlimit:4;stroke-dasharray:none;stroke-dashoffset:0;stroke-opacity:1" />
    <circle
       r="0.58988822"
       cy="181.37012"
       cx="509.35049"
       id="path4330-51-298"
       style="opacity:1;fill:#000000;fill-opacity:1;stroke:#000000;stroke-width:0.38263726;stroke-linecap:round;stroke-linejoin:miter;stroke-miterlimit:4;stroke-dasharray:none;stroke-dashoffset:0;stroke-opacity:1" />
    <circle
       r="0.58988822"
       cy="189.27336"
       cx="506.35272"
       id="path4330-51-641"
       style="opacity:1;fill:#000000;fill-opacity:1;stroke:#000000;stroke-width:0.38263726;stroke-linecap:round;stroke-linejoin:miter;stroke-miterlimit:4;stroke-dasharray:none;stroke-dashoffset:0;stroke-opacity:1" />
    <circle
       r="0.58988822"
       cy="200.17439"
       cx="503.08243"
       id="path4330-51-207"
       style="opacity:1;fill:#000000;fill-opacity:1;stroke:#000000;stroke-width:0.38263726;stroke-linecap:round;stroke-linejoin:miter;stroke-miterlimit:4;stroke-dasharray:none;stroke-dashoffset:0;stroke-opacity:1" />
    <circle
       r="0.58988822"
       cy="208.8952"
       cx="500.35715"
       id="path4330-51-187"
       style="opacity:1;fill:#000000;fill-opacity:1;stroke:#000000;stroke-width:0.38263726;stroke-linecap:round;stroke-linejoin:miter;stroke-miterlimit:4;stroke-dasharray:none;stroke-dashoffset:0;stroke-opacity:1" />
    <circle
       r="0.58988822"
       cy="220.88634"
       cx="497.6319"
       id="path4330-51-153"
       style="opacity:1;fill:#000000;fill-opacity:1;stroke:#000000;stroke-width:0.38263726;stroke-linecap:round;stroke-linejoin:miter;stroke-miterlimit:4;stroke-dasharray:none;stroke-dashoffset:0;stroke-opacity:1" />
    <circle
       r="0.58988822"
       cy="229.60716"
       cx="495.17917"
       id="path4330-51-37"
       style="opacity:1;fill:#000000;fill-opacity:1;stroke:#000000;stroke-width:0.38263726;stroke-linecap:round;stroke-linejoin:miter;stroke-miterlimit:4;stroke-dasharray:none;stroke-dashoffset:0;stroke-opacity:1" />
    <circle
       r="0.58988822"
       cy="238.05545"
       cx="493.54401"
       id="path4330-51-904"
       style="opacity:1;fill:#000000;fill-opacity:1;stroke:#000000;stroke-width:0.38263726;stroke-linecap:round;stroke-linejoin:miter;stroke-miterlimit:4;stroke-dasharray:none;stroke-dashoffset:0;stroke-opacity:1" />
  </g>
  <text
     xml:space="preserve"
     style="font-style:normal;font-weight:normal;font-size:17.5px;line-height:23.43750191px;font-family:sans-serif;letter-spacing:0px;word-spacing:0px;fill:#000000;fill-opacity:1;stroke:none;stroke-width:0.93750006"
     x="370.80212"
     y="642.97076"
     id="text4704"><tspan
       sodipodi:role="line"
       x="370.80212"
       y="642.97076"
       style="font-size:60.00000381px;line-height:65.94094849px;text-align:center;text-anchor:middle;stroke-width:0.93750006"
       id="tspan4706">More</tspan><tspan
       sodipodi:role="line"
       x="370.80212"
       y="708.91168"
       style="font-size:60.00000381px;line-height:65.94094849px;text-align:center;text-anchor:middle;stroke-width:0.93750006"
       id="tspan4710">Stainless</tspan><tspan
       sodipodi:role="line"
       x="370.80212"
       y="774.85266"
       style="font-size:60.00000381px;line-height:65.94094849px;text-align:center;text-anchor:middle;stroke-width:0.93750006"
       id="tspan4714">Steel Rat</tspan></text>
  <text
     xml:space="preserve"
     style="font-style:normal;font-weight:normal;font-size:17.5px;line-height:23.43750191px;font-family:sans-serif;letter-spacing:0px;word-spacing:0px;fill:#000000;fill-opacity:1;stroke:none;stroke-width:0.93750006"
     x="277.32678"
     y="858.96875"
     id="text4720"><tspan
       sodipodi:role="line"
       id="tspan4718"
       x="277.32678"
       y="858.96875"
       style="font-size:25.00000191px;stroke-width:0.93750006">Derrick Oswald</tspan></text>
</svg>
